<?xml version="1.0" encoding="UTF-8"?>
<svg xmlns="http://www.w3.org/2000/svg" xmlns:xlink="http://www.w3.org/1999/xlink" width="1367pt" height="617pt" viewBox="0 0 1367 617" version="1.1">
<defs>
<g>
<symbol overflow="visible" id="glyph0-0">
<path style="stroke:none;" d="M 0.640625 2.265625 L 0.640625 -9.015625 L 7.03125 -9.015625 L 7.03125 2.265625 Z M 1.359375 1.546875 L 6.328125 1.546875 L 6.328125 -8.296875 L 1.359375 -8.296875 Z M 1.359375 1.546875 "/>
</symbol>
<symbol overflow="visible" id="glyph0-1">
<path style="stroke:none;" d="M 1.25 -9.328125 L 7.15625 -9.328125 L 7.15625 -8.265625 L 2.515625 -8.265625 L 2.515625 -5.5 L 6.953125 -5.5 L 6.953125 -4.4375 L 2.515625 -4.4375 L 2.515625 -1.0625 L 7.265625 -1.0625 L 7.265625 0 L 1.25 0 Z M 1.25 -9.328125 "/>
</symbol>
<symbol overflow="visible" id="glyph0-2">
<path style="stroke:none;" d="M 2.34375 -8.984375 L 2.34375 -7 L 4.71875 -7 L 4.71875 -6.109375 L 2.34375 -6.109375 L 2.34375 -2.3125 C 2.34375 -1.738281 2.421875 -1.367188 2.578125 -1.203125 C 2.734375 -1.046875 3.050781 -0.96875 3.53125 -0.96875 L 4.71875 -0.96875 L 4.71875 0 L 3.53125 0 C 2.644531 0 2.03125 -0.164062 1.6875 -0.5 C 1.351562 -0.832031 1.1875 -1.4375 1.1875 -2.3125 L 1.1875 -6.109375 L 0.34375 -6.109375 L 0.34375 -7 L 1.1875 -7 L 1.1875 -8.984375 Z M 2.34375 -8.984375 "/>
</symbol>
<symbol overflow="visible" id="glyph0-3">
<path style="stroke:none;" d="M 4.390625 -3.515625 C 3.460938 -3.515625 2.816406 -3.40625 2.453125 -3.1875 C 2.097656 -2.976562 1.921875 -2.617188 1.921875 -2.109375 C 1.921875 -1.703125 2.050781 -1.378906 2.3125 -1.140625 C 2.582031 -0.898438 2.953125 -0.78125 3.421875 -0.78125 C 4.054688 -0.78125 4.566406 -1.003906 4.953125 -1.453125 C 5.335938 -1.910156 5.53125 -2.515625 5.53125 -3.265625 L 5.53125 -3.515625 Z M 6.671875 -4 L 6.671875 0 L 5.53125 0 L 5.53125 -1.0625 C 5.269531 -0.632812 4.941406 -0.316406 4.546875 -0.109375 C 4.160156 0.0859375 3.679688 0.1875 3.109375 0.1875 C 2.390625 0.1875 1.816406 -0.015625 1.390625 -0.421875 C 0.972656 -0.828125 0.765625 -1.363281 0.765625 -2.03125 C 0.765625 -2.820312 1.023438 -3.414062 1.546875 -3.8125 C 2.078125 -4.21875 2.867188 -4.421875 3.921875 -4.421875 L 5.53125 -4.421875 L 5.53125 -4.53125 C 5.53125 -5.0625 5.351562 -5.46875 5 -5.75 C 4.65625 -6.039062 4.171875 -6.1875 3.546875 -6.1875 C 3.140625 -6.1875 2.75 -6.140625 2.375 -6.046875 C 2 -5.953125 1.632812 -5.8125 1.28125 -5.625 L 1.28125 -6.671875 C 1.695312 -6.835938 2.101562 -6.960938 2.5 -7.046875 C 2.894531 -7.128906 3.28125 -7.171875 3.65625 -7.171875 C 4.675781 -7.171875 5.429688 -6.90625 5.921875 -6.375 C 6.421875 -5.851562 6.671875 -5.0625 6.671875 -4 Z M 6.671875 -4 "/>
</symbol>
<symbol overflow="visible" id="glyph0-4">
<path style="stroke:none;" d=""/>
</symbol>
<symbol overflow="visible" id="glyph0-5">
<path style="stroke:none;" d="M 1.59375 -1.0625 L 3.65625 -1.0625 L 3.65625 -8.171875 L 1.40625 -7.734375 L 1.40625 -8.875 L 3.640625 -9.328125 L 4.90625 -9.328125 L 4.90625 -1.0625 L 6.953125 -1.0625 L 6.953125 0 L 1.59375 0 Z M 1.59375 -1.0625 "/>
</symbol>
<symbol overflow="visible" id="glyph0-6">
<path style="stroke:none;" d="M 1.5 -1.59375 L 2.8125 -1.59375 L 2.8125 0 L 1.5 0 Z M 1.5 -6.609375 L 2.8125 -6.609375 L 2.8125 -5.03125 L 1.5 -5.03125 Z M 1.5 -6.609375 "/>
</symbol>
<symbol overflow="visible" id="glyph0-7">
<path style="stroke:none;" d="M 4.375 -8.078125 L 2.65625 -3.4375 L 6.09375 -3.4375 Z M 3.65625 -9.328125 L 5.09375 -9.328125 L 8.640625 0 L 7.328125 0 L 6.484375 -2.390625 L 2.28125 -2.390625 L 1.4375 0 L 0.09375 0 Z M 3.65625 -9.328125 "/>
</symbol>
<symbol overflow="visible" id="glyph0-8">
<path style="stroke:none;" d="M 7.1875 -3.78125 L 7.1875 -3.21875 L 1.90625 -3.21875 C 1.957031 -2.425781 2.195312 -1.820312 2.625 -1.40625 C 3.050781 -1 3.644531 -0.796875 4.40625 -0.796875 C 4.84375 -0.796875 5.269531 -0.847656 5.6875 -0.953125 C 6.101562 -1.066406 6.515625 -1.226562 6.921875 -1.4375 L 6.921875 -0.359375 C 6.515625 -0.179688 6.09375 -0.046875 5.65625 0.046875 C 5.21875 0.140625 4.78125 0.1875 4.34375 0.1875 C 3.21875 0.1875 2.328125 -0.132812 1.671875 -0.78125 C 1.023438 -1.4375 0.703125 -2.320312 0.703125 -3.4375 C 0.703125 -4.582031 1.007812 -5.488281 1.625 -6.15625 C 2.25 -6.832031 3.085938 -7.171875 4.140625 -7.171875 C 5.078125 -7.171875 5.816406 -6.863281 6.359375 -6.25 C 6.910156 -5.644531 7.1875 -4.820312 7.1875 -3.78125 Z M 6.046875 -4.125 C 6.035156 -4.75 5.859375 -5.25 5.515625 -5.625 C 5.171875 -6 4.71875 -6.1875 4.15625 -6.1875 C 3.507812 -6.1875 2.992188 -6.003906 2.609375 -5.640625 C 2.222656 -5.285156 2 -4.78125 1.9375 -4.125 Z M 6.046875 -4.125 "/>
</symbol>
<symbol overflow="visible" id="glyph0-9">
<path style="stroke:none;" d="M 7.015625 -4.21875 L 7.015625 0 L 5.875 0 L 5.875 -4.1875 C 5.875 -4.851562 5.742188 -5.347656 5.484375 -5.671875 C 5.222656 -6.003906 4.835938 -6.171875 4.328125 -6.171875 C 3.703125 -6.171875 3.207031 -5.972656 2.84375 -5.578125 C 2.488281 -5.179688 2.3125 -4.640625 2.3125 -3.953125 L 2.3125 0 L 1.15625 0 L 1.15625 -7 L 2.3125 -7 L 2.3125 -5.90625 C 2.59375 -6.332031 2.914062 -6.648438 3.28125 -6.859375 C 3.65625 -7.066406 4.085938 -7.171875 4.578125 -7.171875 C 5.378906 -7.171875 5.984375 -6.921875 6.390625 -6.421875 C 6.804688 -5.921875 7.015625 -5.1875 7.015625 -4.21875 Z M 7.015625 -4.21875 "/>
</symbol>
<symbol overflow="visible" id="glyph0-10">
<path style="stroke:none;" d="M 4.0625 -8.5 C 3.414062 -8.5 2.925781 -8.175781 2.59375 -7.53125 C 2.269531 -6.894531 2.109375 -5.9375 2.109375 -4.65625 C 2.109375 -3.375 2.269531 -2.410156 2.59375 -1.765625 C 2.925781 -1.128906 3.414062 -0.8125 4.0625 -0.8125 C 4.71875 -0.8125 5.207031 -1.128906 5.53125 -1.765625 C 5.863281 -2.410156 6.03125 -3.375 6.03125 -4.65625 C 6.03125 -5.9375 5.863281 -6.894531 5.53125 -7.53125 C 5.207031 -8.175781 4.71875 -8.5 4.0625 -8.5 Z M 4.0625 -9.5 C 5.113281 -9.5 5.914062 -9.082031 6.46875 -8.25 C 7.019531 -7.425781 7.296875 -6.226562 7.296875 -4.65625 C 7.296875 -3.082031 7.019531 -1.878906 6.46875 -1.046875 C 5.914062 -0.222656 5.113281 0.1875 4.0625 0.1875 C 3.019531 0.1875 2.222656 -0.222656 1.671875 -1.046875 C 1.117188 -1.878906 0.84375 -3.082031 0.84375 -4.65625 C 0.84375 -6.226562 1.117188 -7.425781 1.671875 -8.25 C 2.222656 -9.082031 3.019531 -9.5 4.0625 -9.5 Z M 4.0625 -9.5 "/>
</symbol>
<symbol overflow="visible" id="glyph0-11">
<path style="stroke:none;" d="M 1.25 -9.328125 L 2.515625 -9.328125 L 2.515625 0 L 1.25 0 Z M 1.25 -9.328125 "/>
</symbol>
<symbol overflow="visible" id="glyph0-12">
<path style="stroke:none;" d="M 1.203125 -7 L 2.359375 -7 L 2.359375 0 L 1.203125 0 Z M 1.203125 -9.71875 L 2.359375 -9.71875 L 2.359375 -8.265625 L 1.203125 -8.265625 Z M 1.203125 -9.71875 "/>
</symbol>
<symbol overflow="visible" id="glyph0-13">
<path style="stroke:none;" d="M 1.203125 -9.71875 L 2.359375 -9.71875 L 2.359375 0 L 1.203125 0 Z M 1.203125 -9.71875 "/>
</symbol>
<symbol overflow="visible" id="glyph0-14">
<path style="stroke:none;" d="M 5.671875 -6.796875 L 5.671875 -5.703125 C 5.347656 -5.867188 5.007812 -5.992188 4.65625 -6.078125 C 4.300781 -6.160156 3.9375 -6.203125 3.5625 -6.203125 C 3 -6.203125 2.570312 -6.113281 2.28125 -5.9375 C 2 -5.769531 1.859375 -5.507812 1.859375 -5.15625 C 1.859375 -4.882812 1.957031 -4.671875 2.15625 -4.515625 C 2.363281 -4.367188 2.773438 -4.226562 3.390625 -4.09375 L 3.78125 -4 C 4.601562 -3.832031 5.1875 -3.585938 5.53125 -3.265625 C 5.875 -2.941406 6.046875 -2.5 6.046875 -1.9375 C 6.046875 -1.28125 5.785156 -0.757812 5.265625 -0.375 C 4.753906 0 4.050781 0.1875 3.15625 0.1875 C 2.78125 0.1875 2.390625 0.148438 1.984375 0.078125 C 1.578125 0.00390625 1.144531 -0.101562 0.6875 -0.25 L 0.6875 -1.4375 C 1.113281 -1.21875 1.53125 -1.050781 1.9375 -0.9375 C 2.351562 -0.832031 2.765625 -0.78125 3.171875 -0.78125 C 3.710938 -0.78125 4.128906 -0.875 4.421875 -1.0625 C 4.710938 -1.25 4.859375 -1.507812 4.859375 -1.84375 C 4.859375 -2.15625 4.753906 -2.394531 4.546875 -2.5625 C 4.335938 -2.726562 3.875 -2.890625 3.15625 -3.046875 L 2.765625 -3.140625 C 2.046875 -3.285156 1.53125 -3.515625 1.21875 -3.828125 C 0.90625 -4.140625 0.75 -4.566406 0.75 -5.109375 C 0.75 -5.765625 0.976562 -6.269531 1.4375 -6.625 C 1.90625 -6.988281 2.570312 -7.171875 3.4375 -7.171875 C 3.851562 -7.171875 4.25 -7.140625 4.625 -7.078125 C 5 -7.015625 5.347656 -6.921875 5.671875 -6.796875 Z M 5.671875 -6.796875 "/>
</symbol>
<symbol overflow="visible" id="glyph0-15">
<path style="stroke:none;" d="M 3.921875 -6.1875 C 3.304688 -6.1875 2.816406 -5.945312 2.453125 -5.46875 C 2.097656 -4.988281 1.921875 -4.332031 1.921875 -3.5 C 1.921875 -2.65625 2.097656 -1.992188 2.453125 -1.515625 C 2.804688 -1.035156 3.296875 -0.796875 3.921875 -0.796875 C 4.535156 -0.796875 5.019531 -1.035156 5.375 -1.515625 C 5.726562 -2.003906 5.90625 -2.664062 5.90625 -3.5 C 5.90625 -4.320312 5.726562 -4.972656 5.375 -5.453125 C 5.019531 -5.941406 4.535156 -6.1875 3.921875 -6.1875 Z M 3.921875 -7.171875 C 4.921875 -7.171875 5.703125 -6.84375 6.265625 -6.1875 C 6.835938 -5.539062 7.125 -4.644531 7.125 -3.5 C 7.125 -2.351562 6.835938 -1.453125 6.265625 -0.796875 C 5.703125 -0.140625 4.921875 0.1875 3.921875 0.1875 C 2.910156 0.1875 2.117188 -0.140625 1.546875 -0.796875 C 0.984375 -1.453125 0.703125 -2.351562 0.703125 -3.5 C 0.703125 -4.644531 0.984375 -5.539062 1.546875 -6.1875 C 2.117188 -6.84375 2.910156 -7.171875 3.921875 -7.171875 Z M 3.921875 -7.171875 "/>
</symbol>
<symbol overflow="visible" id="glyph0-16">
<path style="stroke:none;" d="M 5.1875 -5.03125 C 5.789062 -4.90625 6.257812 -4.632812 6.59375 -4.21875 C 6.9375 -3.8125 7.109375 -3.3125 7.109375 -2.71875 C 7.109375 -1.789062 6.789062 -1.070312 6.15625 -0.5625 C 5.53125 -0.0625 4.632812 0.1875 3.46875 0.1875 C 3.070312 0.1875 2.664062 0.144531 2.25 0.0625 C 1.84375 -0.0078125 1.414062 -0.125 0.96875 -0.28125 L 0.96875 -1.5 C 1.320312 -1.289062 1.707031 -1.132812 2.125 -1.03125 C 2.539062 -0.925781 2.976562 -0.875 3.4375 -0.875 C 4.226562 -0.875 4.828125 -1.03125 5.234375 -1.34375 C 5.648438 -1.65625 5.859375 -2.113281 5.859375 -2.71875 C 5.859375 -3.257812 5.664062 -3.6875 5.28125 -4 C 4.894531 -4.3125 4.359375 -4.46875 3.671875 -4.46875 L 2.59375 -4.46875 L 2.59375 -5.5 L 3.71875 -5.5 C 4.34375 -5.5 4.816406 -5.625 5.140625 -5.875 C 5.472656 -6.125 5.640625 -6.484375 5.640625 -6.953125 C 5.640625 -7.429688 5.46875 -7.796875 5.125 -8.046875 C 4.789062 -8.304688 4.304688 -8.4375 3.671875 -8.4375 C 3.328125 -8.4375 2.957031 -8.394531 2.5625 -8.3125 C 2.164062 -8.238281 1.726562 -8.125 1.25 -7.96875 L 1.25 -9.09375 C 1.726562 -9.226562 2.175781 -9.328125 2.59375 -9.390625 C 3.019531 -9.460938 3.414062 -9.5 3.78125 -9.5 C 4.738281 -9.5 5.492188 -9.28125 6.046875 -8.84375 C 6.609375 -8.40625 6.890625 -7.816406 6.890625 -7.078125 C 6.890625 -6.566406 6.742188 -6.128906 6.453125 -5.765625 C 6.160156 -5.410156 5.738281 -5.164062 5.1875 -5.03125 Z M 5.1875 -5.03125 "/>
</symbol>
<symbol overflow="visible" id="glyph0-17">
<path style="stroke:none;" d="M 6.84375 -9.015625 L 6.84375 -7.796875 C 6.363281 -8.023438 5.910156 -8.191406 5.484375 -8.296875 C 5.066406 -8.410156 4.660156 -8.46875 4.265625 -8.46875 C 3.578125 -8.46875 3.046875 -8.332031 2.671875 -8.0625 C 2.296875 -7.800781 2.109375 -7.425781 2.109375 -6.9375 C 2.109375 -6.519531 2.234375 -6.207031 2.484375 -6 C 2.734375 -5.789062 3.203125 -5.625 3.890625 -5.5 L 4.65625 -5.34375 C 5.59375 -5.15625 6.285156 -4.835938 6.734375 -4.390625 C 7.179688 -3.941406 7.40625 -3.335938 7.40625 -2.578125 C 7.40625 -1.671875 7.101562 -0.984375 6.5 -0.515625 C 5.894531 -0.046875 5.007812 0.1875 3.84375 0.1875 C 3.394531 0.1875 2.921875 0.132812 2.421875 0.03125 C 1.929688 -0.0703125 1.414062 -0.21875 0.875 -0.40625 L 0.875 -1.71875 C 1.394531 -1.425781 1.898438 -1.207031 2.390625 -1.0625 C 2.878906 -0.914062 3.363281 -0.84375 3.84375 -0.84375 C 4.5625 -0.84375 5.113281 -0.984375 5.5 -1.265625 C 5.894531 -1.546875 6.09375 -1.953125 6.09375 -2.484375 C 6.09375 -2.941406 5.953125 -3.296875 5.671875 -3.546875 C 5.390625 -3.804688 4.925781 -4.003906 4.28125 -4.140625 L 3.515625 -4.28125 C 2.578125 -4.46875 1.894531 -4.757812 1.46875 -5.15625 C 1.050781 -5.5625 0.84375 -6.117188 0.84375 -6.828125 C 0.84375 -7.660156 1.132812 -8.3125 1.71875 -8.78125 C 2.300781 -9.257812 3.101562 -9.5 4.125 -9.5 C 4.5625 -9.5 5.003906 -9.457031 5.453125 -9.375 C 5.910156 -9.300781 6.375 -9.179688 6.84375 -9.015625 Z M 6.84375 -9.015625 "/>
</symbol>
<symbol overflow="visible" id="glyph0-18">
<path style="stroke:none;" d="M 1.09375 -2.765625 L 1.09375 -7 L 2.234375 -7 L 2.234375 -2.8125 C 2.234375 -2.144531 2.363281 -1.644531 2.625 -1.3125 C 2.882812 -0.976562 3.269531 -0.8125 3.78125 -0.8125 C 4.40625 -0.8125 4.894531 -1.007812 5.25 -1.40625 C 5.613281 -1.800781 5.796875 -2.34375 5.796875 -3.03125 L 5.796875 -7 L 6.953125 -7 L 6.953125 0 L 5.796875 0 L 5.796875 -1.078125 C 5.515625 -0.648438 5.191406 -0.332031 4.828125 -0.125 C 4.460938 0.0820312 4.035156 0.1875 3.546875 0.1875 C 2.742188 0.1875 2.132812 -0.0625 1.71875 -0.5625 C 1.300781 -1.0625 1.09375 -1.796875 1.09375 -2.765625 Z M 1.09375 -2.765625 "/>
</symbol>
<symbol overflow="visible" id="glyph0-19">
<path style="stroke:none;" d="M 0.625 -4.015625 L 4 -4.015625 L 4 -3 L 0.625 -3 Z M 0.625 -4.015625 "/>
</symbol>
<symbol overflow="visible" id="glyph0-20">
<path style="stroke:none;" d="M 1.890625 -3.5 C 1.890625 -2.644531 2.0625 -1.976562 2.40625 -1.5 C 2.757812 -1.019531 3.238281 -0.78125 3.84375 -0.78125 C 4.457031 -0.78125 4.9375 -1.019531 5.28125 -1.5 C 5.632812 -1.976562 5.8125 -2.644531 5.8125 -3.5 C 5.8125 -4.34375 5.632812 -5.003906 5.28125 -5.484375 C 4.9375 -5.960938 4.457031 -6.203125 3.84375 -6.203125 C 3.238281 -6.203125 2.757812 -5.960938 2.40625 -5.484375 C 2.0625 -5.003906 1.890625 -4.34375 1.890625 -3.5 Z M 5.8125 -1.046875 C 5.570312 -0.628906 5.265625 -0.316406 4.890625 -0.109375 C 4.523438 0.0859375 4.082031 0.1875 3.5625 0.1875 C 2.71875 0.1875 2.03125 -0.148438 1.5 -0.828125 C 0.96875 -1.503906 0.703125 -2.394531 0.703125 -3.5 C 0.703125 -4.59375 0.96875 -5.476562 1.5 -6.15625 C 2.03125 -6.832031 2.71875 -7.171875 3.5625 -7.171875 C 4.082031 -7.171875 4.523438 -7.066406 4.890625 -6.859375 C 5.265625 -6.660156 5.570312 -6.351562 5.8125 -5.9375 L 5.8125 -7 L 6.953125 -7 L 6.953125 2.65625 L 5.8125 2.65625 Z M 5.8125 -1.046875 "/>
</symbol>
<symbol overflow="visible" id="glyph0-21">
<path style="stroke:none;" d="M 1.375 -9.328125 L 6.34375 -9.328125 L 6.34375 -8.265625 L 2.53125 -8.265625 L 2.53125 -5.984375 C 2.71875 -6.046875 2.898438 -6.09375 3.078125 -6.125 C 3.265625 -6.15625 3.453125 -6.171875 3.640625 -6.171875 C 4.679688 -6.171875 5.503906 -5.882812 6.109375 -5.3125 C 6.710938 -4.738281 7.015625 -3.96875 7.015625 -3 C 7.015625 -1.988281 6.703125 -1.203125 6.078125 -0.640625 C 5.460938 -0.0859375 4.582031 0.1875 3.4375 0.1875 C 3.050781 0.1875 2.65625 0.148438 2.25 0.078125 C 1.84375 0.015625 1.421875 -0.0820312 0.984375 -0.21875 L 0.984375 -1.484375 C 1.359375 -1.285156 1.742188 -1.132812 2.140625 -1.03125 C 2.546875 -0.925781 2.972656 -0.875 3.421875 -0.875 C 4.140625 -0.875 4.707031 -1.0625 5.125 -1.4375 C 5.550781 -1.820312 5.765625 -2.34375 5.765625 -3 C 5.765625 -3.644531 5.550781 -4.15625 5.125 -4.53125 C 4.707031 -4.914062 4.140625 -5.109375 3.421875 -5.109375 C 3.078125 -5.109375 2.738281 -5.066406 2.40625 -4.984375 C 2.070312 -4.910156 1.726562 -4.796875 1.375 -4.640625 Z M 1.375 -9.328125 "/>
</symbol>
<symbol overflow="visible" id="glyph0-22">
<path style="stroke:none;" d="M 1.25 -9.328125 L 6.609375 -9.328125 L 6.609375 -8.265625 L 2.515625 -8.265625 L 2.515625 -5.515625 L 6.21875 -5.515625 L 6.21875 -4.453125 L 2.515625 -4.453125 L 2.515625 0 L 1.25 0 Z M 1.25 -9.328125 "/>
</symbol>
<symbol overflow="visible" id="glyph0-23">
<path style="stroke:none;" d="M 5.265625 -5.921875 C 5.128906 -5.992188 4.984375 -6.046875 4.828125 -6.078125 C 4.679688 -6.117188 4.519531 -6.140625 4.34375 -6.140625 C 3.6875 -6.140625 3.179688 -5.925781 2.828125 -5.5 C 2.484375 -5.082031 2.3125 -4.476562 2.3125 -3.6875 L 2.3125 0 L 1.15625 0 L 1.15625 -7 L 2.3125 -7 L 2.3125 -5.90625 C 2.5625 -6.332031 2.878906 -6.648438 3.265625 -6.859375 C 3.648438 -7.066406 4.117188 -7.171875 4.671875 -7.171875 C 4.753906 -7.171875 4.84375 -7.164062 4.9375 -7.15625 C 5.03125 -7.144531 5.132812 -7.128906 5.25 -7.109375 Z M 5.265625 -5.921875 "/>
</symbol>
<symbol overflow="visible" id="glyph0-24">
<path style="stroke:none;" d="M 5.8125 -3.578125 C 5.8125 -4.410156 5.640625 -5.054688 5.296875 -5.515625 C 4.953125 -5.972656 4.46875 -6.203125 3.84375 -6.203125 C 3.226562 -6.203125 2.75 -5.972656 2.40625 -5.515625 C 2.0625 -5.054688 1.890625 -4.410156 1.890625 -3.578125 C 1.890625 -2.753906 2.0625 -2.113281 2.40625 -1.65625 C 2.75 -1.195312 3.226562 -0.96875 3.84375 -0.96875 C 4.46875 -0.96875 4.953125 -1.195312 5.296875 -1.65625 C 5.640625 -2.113281 5.8125 -2.753906 5.8125 -3.578125 Z M 6.953125 -0.875 C 6.953125 0.320312 6.6875 1.207031 6.15625 1.78125 C 5.632812 2.363281 4.828125 2.65625 3.734375 2.65625 C 3.328125 2.65625 2.945312 2.625 2.59375 2.5625 C 2.238281 2.507812 1.890625 2.421875 1.546875 2.296875 L 1.546875 1.171875 C 1.890625 1.359375 2.222656 1.492188 2.546875 1.578125 C 2.878906 1.671875 3.21875 1.71875 3.5625 1.71875 C 4.3125 1.71875 4.875 1.519531 5.25 1.125 C 5.625 0.726562 5.8125 0.132812 5.8125 -0.65625 L 5.8125 -1.234375 C 5.570312 -0.816406 5.265625 -0.503906 4.890625 -0.296875 C 4.523438 -0.0976562 4.082031 0 3.5625 0 C 2.707031 0 2.015625 -0.328125 1.484375 -0.984375 C 0.960938 -1.640625 0.703125 -2.503906 0.703125 -3.578125 C 0.703125 -4.660156 0.960938 -5.53125 1.484375 -6.1875 C 2.015625 -6.84375 2.707031 -7.171875 3.5625 -7.171875 C 4.082031 -7.171875 4.523438 -7.066406 4.890625 -6.859375 C 5.265625 -6.648438 5.570312 -6.34375 5.8125 -5.9375 L 5.8125 -7 L 6.953125 -7 Z M 6.953125 -0.875 "/>
</symbol>
<symbol overflow="visible" id="glyph0-25">
<path style="stroke:none;" d="M 2.453125 -1.0625 L 6.859375 -1.0625 L 6.859375 0 L 0.9375 0 L 0.9375 -1.0625 C 1.414062 -1.5625 2.066406 -2.226562 2.890625 -3.0625 C 3.722656 -3.894531 4.242188 -4.429688 4.453125 -4.671875 C 4.859375 -5.128906 5.140625 -5.515625 5.296875 -5.828125 C 5.460938 -6.140625 5.546875 -6.445312 5.546875 -6.75 C 5.546875 -7.25 5.367188 -7.65625 5.015625 -7.96875 C 4.671875 -8.28125 4.21875 -8.4375 3.65625 -8.4375 C 3.257812 -8.4375 2.84375 -8.363281 2.40625 -8.21875 C 1.96875 -8.082031 1.5 -7.878906 1 -7.609375 L 1 -8.875 C 1.507812 -9.082031 1.984375 -9.238281 2.421875 -9.34375 C 2.867188 -9.445312 3.273438 -9.5 3.640625 -9.5 C 4.609375 -9.5 5.378906 -9.253906 5.953125 -8.765625 C 6.523438 -8.285156 6.8125 -7.640625 6.8125 -6.828125 C 6.8125 -6.453125 6.738281 -6.09375 6.59375 -5.75 C 6.445312 -5.40625 6.1875 -5 5.8125 -4.53125 C 5.707031 -4.40625 5.375 -4.054688 4.8125 -3.484375 C 4.257812 -2.910156 3.472656 -2.101562 2.453125 -1.0625 Z M 2.453125 -1.0625 "/>
</symbol>
<symbol overflow="visible" id="glyph0-26">
<path style="stroke:none;" d="M 5.6875 -4.375 C 5.957031 -4.28125 6.21875 -4.082031 6.46875 -3.78125 C 6.726562 -3.488281 6.984375 -3.078125 7.234375 -2.546875 L 8.515625 0 L 7.171875 0 L 5.96875 -2.390625 C 5.664062 -3.015625 5.367188 -3.425781 5.078125 -3.625 C 4.785156 -3.832031 4.390625 -3.9375 3.890625 -3.9375 L 2.515625 -3.9375 L 2.515625 0 L 1.25 0 L 1.25 -9.328125 L 4.109375 -9.328125 C 5.171875 -9.328125 5.960938 -9.101562 6.484375 -8.65625 C 7.015625 -8.207031 7.28125 -7.535156 7.28125 -6.640625 C 7.28125 -6.054688 7.140625 -5.566406 6.859375 -5.171875 C 6.585938 -4.785156 6.195312 -4.519531 5.6875 -4.375 Z M 2.515625 -8.296875 L 2.515625 -4.984375 L 4.109375 -4.984375 C 4.710938 -4.984375 5.171875 -5.125 5.484375 -5.40625 C 5.796875 -5.6875 5.953125 -6.097656 5.953125 -6.640625 C 5.953125 -7.179688 5.796875 -7.59375 5.484375 -7.875 C 5.171875 -8.15625 4.710938 -8.296875 4.109375 -8.296875 Z M 2.515625 -8.296875 "/>
</symbol>
<symbol overflow="visible" id="glyph0-27">
<path style="stroke:none;" d="M 4.84375 -8.234375 L 1.65625 -3.25 L 4.84375 -3.25 Z M 4.5 -9.328125 L 6.09375 -9.328125 L 6.09375 -3.25 L 7.421875 -3.25 L 7.421875 -2.203125 L 6.09375 -2.203125 L 6.09375 0 L 4.84375 0 L 4.84375 -2.203125 L 0.625 -2.203125 L 0.625 -3.421875 Z M 4.5 -9.328125 "/>
</symbol>
<symbol overflow="visible" id="glyph0-28">
<path style="stroke:none;" d="M 2.515625 -8.296875 L 2.515625 -1.03125 L 4.046875 -1.03125 C 5.328125 -1.03125 6.265625 -1.320312 6.859375 -1.90625 C 7.460938 -2.488281 7.765625 -3.410156 7.765625 -4.671875 C 7.765625 -5.921875 7.460938 -6.835938 6.859375 -7.421875 C 6.265625 -8.003906 5.328125 -8.296875 4.046875 -8.296875 Z M 1.25 -9.328125 L 3.84375 -9.328125 C 5.65625 -9.328125 6.984375 -8.953125 7.828125 -8.203125 C 8.671875 -7.453125 9.09375 -6.273438 9.09375 -4.671875 C 9.09375 -3.066406 8.664062 -1.882812 7.8125 -1.125 C 6.96875 -0.375 5.644531 0 3.84375 0 L 1.25 0 Z M 1.25 -9.328125 "/>
</symbol>
<symbol overflow="visible" id="glyph0-29">
<path style="stroke:none;" d="M 6.25 -6.734375 L 6.25 -5.65625 C 5.914062 -5.832031 5.585938 -5.960938 5.265625 -6.046875 C 4.941406 -6.140625 4.613281 -6.1875 4.28125 -6.1875 C 3.53125 -6.1875 2.945312 -5.953125 2.53125 -5.484375 C 2.125 -5.015625 1.921875 -4.351562 1.921875 -3.5 C 1.921875 -2.644531 2.125 -1.976562 2.53125 -1.5 C 2.945312 -1.03125 3.53125 -0.796875 4.28125 -0.796875 C 4.613281 -0.796875 4.941406 -0.835938 5.265625 -0.921875 C 5.585938 -1.015625 5.914062 -1.148438 6.25 -1.328125 L 6.25 -0.265625 C 5.925781 -0.117188 5.59375 -0.0078125 5.25 0.0625 C 4.90625 0.144531 4.539062 0.1875 4.15625 0.1875 C 3.09375 0.1875 2.25 -0.144531 1.625 -0.8125 C 1.007812 -1.476562 0.703125 -2.375 0.703125 -3.5 C 0.703125 -4.632812 1.015625 -5.53125 1.640625 -6.1875 C 2.273438 -6.84375 3.132812 -7.171875 4.21875 -7.171875 C 4.570312 -7.171875 4.914062 -7.132812 5.25 -7.0625 C 5.59375 -6.988281 5.925781 -6.878906 6.25 -6.734375 Z M 6.25 -6.734375 "/>
</symbol>
<symbol overflow="visible" id="glyph0-30">
<path style="stroke:none;" d="M 1.046875 -9.328125 L 7.046875 -9.328125 L 7.046875 -8.796875 L 3.65625 0 L 2.34375 0 L 5.53125 -8.265625 L 1.046875 -8.265625 Z M 1.046875 -9.328125 "/>
</symbol>
<symbol overflow="visible" id="glyph0-31">
<path style="stroke:none;" d="M 8.234375 -8.609375 L 8.234375 -7.28125 C 7.816406 -7.675781 7.363281 -7.96875 6.875 -8.15625 C 6.394531 -8.351562 5.882812 -8.453125 5.34375 -8.453125 C 4.28125 -8.453125 3.460938 -8.125 2.890625 -7.46875 C 2.328125 -6.820312 2.046875 -5.882812 2.046875 -4.65625 C 2.046875 -3.425781 2.328125 -2.484375 2.890625 -1.828125 C 3.460938 -1.179688 4.28125 -0.859375 5.34375 -0.859375 C 5.882812 -0.859375 6.394531 -0.953125 6.875 -1.140625 C 7.363281 -1.335938 7.816406 -1.632812 8.234375 -2.03125 L 8.234375 -0.71875 C 7.796875 -0.414062 7.328125 -0.1875 6.828125 -0.03125 C 6.335938 0.113281 5.820312 0.1875 5.28125 0.1875 C 3.863281 0.1875 2.75 -0.242188 1.9375 -1.109375 C 1.125 -1.972656 0.71875 -3.15625 0.71875 -4.65625 C 0.71875 -6.15625 1.125 -7.335938 1.9375 -8.203125 C 2.75 -9.066406 3.863281 -9.5 5.28125 -9.5 C 5.832031 -9.5 6.351562 -9.421875 6.84375 -9.265625 C 7.34375 -9.117188 7.804688 -8.898438 8.234375 -8.609375 Z M 8.234375 -8.609375 "/>
</symbol>
<symbol overflow="visible" id="glyph0-32">
<path style="stroke:none;" d="M 0.375 -7 L 1.59375 -7 L 3.78125 -1.125 L 5.96875 -7 L 7.1875 -7 L 4.5625 0 L 3 0 Z M 0.375 -7 "/>
</symbol>
<symbol overflow="visible" id="glyph0-33">
<path style="stroke:none;" d="M 1.25 -9.328125 L 3.140625 -9.328125 L 5.515625 -2.984375 L 7.90625 -9.328125 L 9.796875 -9.328125 L 9.796875 0 L 8.5625 0 L 8.5625 -8.1875 L 6.15625 -1.796875 L 4.890625 -1.796875 L 2.484375 -8.1875 L 2.484375 0 L 1.25 0 Z M 1.25 -9.328125 "/>
</symbol>
<symbol overflow="visible" id="glyph0-34">
<path style="stroke:none;" d="M 2.3125 -1.046875 L 2.3125 2.65625 L 1.15625 2.65625 L 1.15625 -7 L 2.3125 -7 L 2.3125 -5.9375 C 2.5625 -6.351562 2.867188 -6.660156 3.234375 -6.859375 C 3.597656 -7.066406 4.039062 -7.171875 4.5625 -7.171875 C 5.40625 -7.171875 6.09375 -6.832031 6.625 -6.15625 C 7.15625 -5.476562 7.421875 -4.59375 7.421875 -3.5 C 7.421875 -2.394531 7.15625 -1.503906 6.625 -0.828125 C 6.09375 -0.148438 5.40625 0.1875 4.5625 0.1875 C 4.039062 0.1875 3.597656 0.0859375 3.234375 -0.109375 C 2.867188 -0.316406 2.5625 -0.628906 2.3125 -1.046875 Z M 6.234375 -3.5 C 6.234375 -4.34375 6.054688 -5.003906 5.703125 -5.484375 C 5.359375 -5.960938 4.882812 -6.203125 4.28125 -6.203125 C 3.664062 -6.203125 3.179688 -5.960938 2.828125 -5.484375 C 2.484375 -5.003906 2.3125 -4.34375 2.3125 -3.5 C 2.3125 -2.644531 2.484375 -1.976562 2.828125 -1.5 C 3.179688 -1.019531 3.664062 -0.78125 4.28125 -0.78125 C 4.882812 -0.78125 5.359375 -1.019531 5.703125 -1.5 C 6.054688 -1.976562 6.234375 -2.644531 6.234375 -3.5 Z M 6.234375 -3.5 "/>
</symbol>
<symbol overflow="visible" id="glyph0-35">
<path style="stroke:none;" d="M 0.53125 -7 L 1.6875 -7 L 3.125 -1.53125 L 4.5625 -7 L 5.90625 -7 L 7.34375 -1.53125 L 8.78125 -7 L 9.921875 -7 L 8.09375 0 L 6.734375 0 L 5.234375 -5.734375 L 3.71875 0 L 2.375 0 Z M 0.53125 -7 "/>
</symbol>
<symbol overflow="visible" id="glyph0-36">
<path style="stroke:none;" d="M 6.65625 -5.65625 C 6.9375 -6.164062 7.273438 -6.546875 7.671875 -6.796875 C 8.078125 -7.046875 8.550781 -7.171875 9.09375 -7.171875 C 9.820312 -7.171875 10.382812 -6.914062 10.78125 -6.40625 C 11.175781 -5.894531 11.375 -5.164062 11.375 -4.21875 L 11.375 0 L 10.21875 0 L 10.21875 -4.1875 C 10.21875 -4.851562 10.097656 -5.347656 9.859375 -5.671875 C 9.628906 -6.003906 9.269531 -6.171875 8.78125 -6.171875 C 8.1875 -6.171875 7.710938 -5.972656 7.359375 -5.578125 C 7.015625 -5.179688 6.84375 -4.640625 6.84375 -3.953125 L 6.84375 0 L 5.6875 0 L 5.6875 -4.1875 C 5.6875 -4.863281 5.566406 -5.363281 5.328125 -5.6875 C 5.097656 -6.007812 4.734375 -6.171875 4.234375 -6.171875 C 3.648438 -6.171875 3.179688 -5.96875 2.828125 -5.5625 C 2.484375 -5.164062 2.3125 -4.628906 2.3125 -3.953125 L 2.3125 0 L 1.15625 0 L 1.15625 -7 L 2.3125 -7 L 2.3125 -5.90625 C 2.582031 -6.332031 2.898438 -6.648438 3.265625 -6.859375 C 3.628906 -7.066406 4.0625 -7.171875 4.5625 -7.171875 C 5.070312 -7.171875 5.503906 -7.039062 5.859375 -6.78125 C 6.222656 -6.519531 6.488281 -6.144531 6.65625 -5.65625 Z M 6.65625 -5.65625 "/>
</symbol>
<symbol overflow="visible" id="glyph0-37">
<path style="stroke:none;" d="M 7.1875 -3.78125 L 7.1875 -3.21875 L 1.90625 -3.21875 C 1.957031 -2.425781 2.195312 -1.820312 2.625 -1.40625 C 3.050781 -1 3.644531 -0.796875 4.40625 -0.796875 C 4.84375 -0.796875 5.269531 -0.847656 5.6875 -0.953125 C 6.101562 -1.066406 6.515625 -1.226562 6.921875 -1.4375 L 6.921875 -0.359375 C 6.515625 -0.179688 6.09375 -0.046875 5.65625 0.046875 C 5.21875 0.140625 4.78125 0.1875 4.34375 0.1875 C 3.21875 0.1875 2.328125 -0.132812 1.671875 -0.78125 C 1.023438 -1.4375 0.703125 -2.320312 0.703125 -3.4375 C 0.703125 -4.582031 1.007812 -5.488281 1.625 -6.15625 C 2.25 -6.832031 3.085938 -7.171875 4.140625 -7.171875 C 5.078125 -7.171875 5.816406 -6.863281 6.359375 -6.25 C 6.910156 -5.644531 7.1875 -4.820312 7.1875 -3.78125 Z M 6.046875 -4.125 C 6.035156 -4.75 5.859375 -5.25 5.515625 -5.625 C 5.171875 -6 4.71875 -6.1875 4.15625 -6.1875 C 3.507812 -6.1875 2.992188 -6.003906 2.609375 -5.640625 C 2.222656 -5.285156 2 -4.78125 1.9375 -4.125 Z M 3.171875 -10.234375 L 4.9375 -7.890625 L 3.96875 -7.890625 L 1.9375 -10.234375 Z M 3.171875 -10.234375 "/>
</symbol>
<symbol overflow="visible" id="glyph0-38">
<path style="stroke:none;" d="M 7.609375 -1.328125 L 7.609375 -3.84375 L 5.5625 -3.84375 L 5.5625 -4.875 L 8.859375 -4.875 L 8.859375 -0.875 C 8.378906 -0.519531 7.84375 -0.253906 7.25 -0.078125 C 6.664062 0.0976562 6.039062 0.1875 5.375 0.1875 C 3.914062 0.1875 2.773438 -0.238281 1.953125 -1.09375 C 1.128906 -1.945312 0.71875 -3.132812 0.71875 -4.65625 C 0.71875 -6.175781 1.128906 -7.363281 1.953125 -8.21875 C 2.773438 -9.070312 3.914062 -9.5 5.375 -9.5 C 5.976562 -9.5 6.550781 -9.421875 7.09375 -9.265625 C 7.644531 -9.117188 8.15625 -8.898438 8.625 -8.609375 L 8.625 -7.265625 C 8.15625 -7.660156 7.65625 -7.957031 7.125 -8.15625 C 6.601562 -8.351562 6.054688 -8.453125 5.484375 -8.453125 C 4.335938 -8.453125 3.476562 -8.132812 2.90625 -7.5 C 2.332031 -6.863281 2.046875 -5.914062 2.046875 -4.65625 C 2.046875 -3.394531 2.332031 -2.445312 2.90625 -1.8125 C 3.476562 -1.175781 4.335938 -0.859375 5.484375 -0.859375 C 5.929688 -0.859375 6.328125 -0.894531 6.671875 -0.96875 C 7.023438 -1.050781 7.335938 -1.171875 7.609375 -1.328125 Z M 7.609375 -1.328125 "/>
</symbol>
<symbol overflow="visible" id="glyph0-39">
<path style="stroke:none;" d="M 5.8125 -5.9375 L 5.8125 -9.71875 L 6.953125 -9.71875 L 6.953125 0 L 5.8125 0 L 5.8125 -1.046875 C 5.570312 -0.628906 5.265625 -0.316406 4.890625 -0.109375 C 4.523438 0.0859375 4.082031 0.1875 3.5625 0.1875 C 2.71875 0.1875 2.03125 -0.148438 1.5 -0.828125 C 0.96875 -1.503906 0.703125 -2.394531 0.703125 -3.5 C 0.703125 -4.59375 0.96875 -5.476562 1.5 -6.15625 C 2.03125 -6.832031 2.71875 -7.171875 3.5625 -7.171875 C 4.082031 -7.171875 4.523438 -7.066406 4.890625 -6.859375 C 5.265625 -6.660156 5.570312 -6.351562 5.8125 -5.9375 Z M 1.890625 -3.5 C 1.890625 -2.644531 2.0625 -1.976562 2.40625 -1.5 C 2.757812 -1.019531 3.238281 -0.78125 3.84375 -0.78125 C 4.457031 -0.78125 4.9375 -1.019531 5.28125 -1.5 C 5.632812 -1.976562 5.8125 -2.644531 5.8125 -3.5 C 5.8125 -4.34375 5.632812 -5.003906 5.28125 -5.484375 C 4.9375 -5.960938 4.457031 -6.203125 3.84375 -6.203125 C 3.238281 -6.203125 2.757812 -5.960938 2.40625 -5.484375 C 2.0625 -5.003906 1.890625 -4.34375 1.890625 -3.5 Z M 1.890625 -3.5 "/>
</symbol>
<symbol overflow="visible" id="glyph0-40">
<path style="stroke:none;" d="M 7.015625 -7 L 4.5 -3.59375 L 7.15625 0 L 5.796875 0 L 3.765625 -2.75 L 1.71875 0 L 0.375 0 L 3.09375 -3.65625 L 0.59375 -7 L 1.953125 -7 L 3.8125 -4.5 L 5.671875 -7 Z M 7.015625 -7 "/>
</symbol>
<symbol overflow="visible" id="glyph0-41">
<path style="stroke:none;" d="M 2.296875 -9.328125 L 2.296875 -5.859375 L 1.234375 -5.859375 L 1.234375 -9.328125 Z M 2.296875 -9.328125 "/>
</symbol>
<symbol overflow="visible" id="glyph0-42">
<path style="stroke:none;" d="M 4.390625 -3.515625 C 3.460938 -3.515625 2.816406 -3.40625 2.453125 -3.1875 C 2.097656 -2.976562 1.921875 -2.617188 1.921875 -2.109375 C 1.921875 -1.703125 2.050781 -1.378906 2.3125 -1.140625 C 2.582031 -0.898438 2.953125 -0.78125 3.421875 -0.78125 C 4.054688 -0.78125 4.566406 -1.003906 4.953125 -1.453125 C 5.335938 -1.910156 5.53125 -2.515625 5.53125 -3.265625 L 5.53125 -3.515625 Z M 6.671875 -4 L 6.671875 0 L 5.53125 0 L 5.53125 -1.0625 C 5.269531 -0.632812 4.941406 -0.316406 4.546875 -0.109375 C 4.160156 0.0859375 3.679688 0.1875 3.109375 0.1875 C 2.390625 0.1875 1.816406 -0.015625 1.390625 -0.421875 C 0.972656 -0.828125 0.765625 -1.363281 0.765625 -2.03125 C 0.765625 -2.820312 1.023438 -3.414062 1.546875 -3.8125 C 2.078125 -4.21875 2.867188 -4.421875 3.921875 -4.421875 L 5.53125 -4.421875 L 5.53125 -4.53125 C 5.53125 -5.0625 5.351562 -5.46875 5 -5.75 C 4.65625 -6.039062 4.171875 -6.1875 3.546875 -6.1875 C 3.140625 -6.1875 2.75 -6.140625 2.375 -6.046875 C 2 -5.953125 1.632812 -5.8125 1.28125 -5.625 L 1.28125 -6.671875 C 1.695312 -6.835938 2.101562 -6.960938 2.5 -7.046875 C 2.894531 -7.128906 3.28125 -7.171875 3.65625 -7.171875 C 4.675781 -7.171875 5.429688 -6.90625 5.921875 -6.375 C 6.421875 -5.851562 6.671875 -5.0625 6.671875 -4 Z M 2.8125 -10.234375 L 4.578125 -7.890625 L 3.609375 -7.890625 L 1.578125 -10.234375 Z M 2.8125 -10.234375 "/>
</symbol>
<symbol overflow="visible" id="glyph0-43">
<path style="stroke:none;" d="M 1.203125 -7 L 2.359375 -7 L 2.359375 0.125 C 2.359375 1.019531 2.1875 1.664062 1.84375 2.0625 C 1.507812 2.457031 0.960938 2.65625 0.203125 2.65625 L -0.234375 2.65625 L -0.234375 1.6875 L 0.078125 1.6875 C 0.515625 1.6875 0.8125 1.582031 0.96875 1.375 C 1.125 1.175781 1.203125 0.757812 1.203125 0.125 Z M 1.203125 -9.71875 L 2.359375 -9.71875 L 2.359375 -8.265625 L 1.203125 -8.265625 Z M 1.203125 -9.71875 "/>
</symbol>
<symbol overflow="visible" id="glyph0-44">
<path style="stroke:none;" d="M 7.015625 -4.21875 L 7.015625 0 L 5.875 0 L 5.875 -4.1875 C 5.875 -4.851562 5.742188 -5.347656 5.484375 -5.671875 C 5.222656 -6.003906 4.835938 -6.171875 4.328125 -6.171875 C 3.703125 -6.171875 3.207031 -5.972656 2.84375 -5.578125 C 2.488281 -5.179688 2.3125 -4.640625 2.3125 -3.953125 L 2.3125 0 L 1.15625 0 L 1.15625 -9.71875 L 2.3125 -9.71875 L 2.3125 -5.90625 C 2.59375 -6.332031 2.914062 -6.648438 3.28125 -6.859375 C 3.65625 -7.066406 4.085938 -7.171875 4.578125 -7.171875 C 5.378906 -7.171875 5.984375 -6.921875 6.390625 -6.421875 C 6.804688 -5.921875 7.015625 -5.1875 7.015625 -4.21875 Z M 7.015625 -4.21875 "/>
</symbol>
<symbol overflow="visible" id="glyph0-45">
<path style="stroke:none;" d="M 7.1875 -3.78125 L 7.1875 -3.21875 L 1.90625 -3.21875 C 1.957031 -2.425781 2.195312 -1.820312 2.625 -1.40625 C 3.050781 -1 3.644531 -0.796875 4.40625 -0.796875 C 4.84375 -0.796875 5.269531 -0.847656 5.6875 -0.953125 C 6.101562 -1.066406 6.515625 -1.226562 6.921875 -1.4375 L 6.921875 -0.359375 C 6.515625 -0.179688 6.09375 -0.046875 5.65625 0.046875 C 5.21875 0.140625 4.78125 0.1875 4.34375 0.1875 C 3.21875 0.1875 2.328125 -0.132812 1.671875 -0.78125 C 1.023438 -1.4375 0.703125 -2.320312 0.703125 -3.4375 C 0.703125 -4.582031 1.007812 -5.488281 1.625 -6.15625 C 2.25 -6.832031 3.085938 -7.171875 4.140625 -7.171875 C 5.078125 -7.171875 5.816406 -6.863281 6.359375 -6.25 C 6.910156 -5.644531 7.1875 -4.820312 7.1875 -3.78125 Z M 6.046875 -4.125 C 6.035156 -4.75 5.859375 -5.25 5.515625 -5.625 C 5.171875 -6 4.71875 -6.1875 4.15625 -6.1875 C 3.507812 -6.1875 2.992188 -6.003906 2.609375 -5.640625 C 2.222656 -5.285156 2 -4.78125 1.9375 -4.125 Z M 4.9375 -10.234375 L 6.1875 -10.234375 L 4.15625 -7.890625 L 3.1875 -7.890625 Z M 4.9375 -10.234375 "/>
</symbol>
<symbol overflow="visible" id="glyph1-0">
<path style="stroke:none;" d="M 0.65625 2.265625 L 0.65625 -9.015625 L 7.046875 -9.015625 L 7.046875 2.265625 Z M 1.375 1.546875 L 6.34375 1.546875 L 6.34375 -8.296875 L 1.375 -8.296875 Z M 1.375 1.546875 "/>
</symbol>
<symbol overflow="visible" id="glyph1-1">
<path style="stroke:none;" d="M 2.71875 -1.03125 C 3.78125 -1.03125 4.519531 -1.289062 4.9375 -1.8125 C 5.363281 -2.34375 5.578125 -3.289062 5.578125 -4.65625 C 5.578125 -6.03125 5.367188 -6.976562 4.953125 -7.5 C 4.535156 -8.03125 3.789062 -8.296875 2.71875 -8.296875 L 2.125 -8.296875 L 2.125 -1.03125 Z M 2.75 -9.328125 C 4.175781 -9.328125 5.222656 -8.945312 5.890625 -8.1875 C 6.566406 -7.425781 6.90625 -6.25 6.90625 -4.65625 C 6.90625 -3.0625 6.566406 -1.882812 5.890625 -1.125 C 5.222656 -0.375 4.175781 0 2.75 0 L 0.859375 0 L 0.859375 -9.328125 Z M 2.75 -9.328125 "/>
</symbol>
<symbol overflow="visible" id="glyph1-2">
<path style="stroke:none;" d="M 1.59375 -7 L 4.546875 -7 L 4.546875 -0.890625 L 6.828125 -0.890625 L 6.828125 0 L 1.109375 0 L 1.109375 -0.890625 L 3.390625 -0.890625 L 3.390625 -6.109375 L 1.59375 -6.109375 Z M 3.390625 -9.71875 L 4.546875 -9.71875 L 4.546875 -8.265625 L 3.390625 -8.265625 Z M 3.390625 -9.71875 "/>
</symbol>
<symbol overflow="visible" id="glyph1-3">
<path style="stroke:none;" d="M 4.390625 -3.515625 L 4 -3.515625 C 3.332031 -3.515625 2.828125 -3.394531 2.484375 -3.15625 C 2.148438 -2.925781 1.984375 -2.578125 1.984375 -2.109375 C 1.984375 -1.691406 2.109375 -1.363281 2.359375 -1.125 C 2.617188 -0.894531 2.972656 -0.78125 3.421875 -0.78125 C 4.054688 -0.78125 4.550781 -1 4.90625 -1.4375 C 5.269531 -1.875 5.457031 -2.484375 5.46875 -3.265625 L 5.46875 -3.515625 Z M 6.609375 -4 L 6.609375 0 L 5.46875 0 L 5.46875 -1.03125 C 5.21875 -0.613281 4.90625 -0.304688 4.53125 -0.109375 C 4.15625 0.0859375 3.703125 0.1875 3.171875 0.1875 C 2.460938 0.1875 1.894531 -0.015625 1.46875 -0.421875 C 1.039062 -0.828125 0.828125 -1.363281 0.828125 -2.03125 C 0.828125 -2.8125 1.085938 -3.40625 1.609375 -3.8125 C 2.140625 -4.21875 2.910156 -4.421875 3.921875 -4.421875 L 5.46875 -4.421875 L 5.46875 -4.59375 C 5.457031 -5.15625 5.3125 -5.5625 5.03125 -5.8125 C 4.757812 -6.0625 4.316406 -6.1875 3.703125 -6.1875 C 3.304688 -6.1875 2.90625 -6.128906 2.5 -6.015625 C 2.101562 -5.910156 1.71875 -5.75 1.34375 -5.53125 L 1.34375 -6.671875 C 1.769531 -6.835938 2.175781 -6.960938 2.5625 -7.046875 C 2.957031 -7.128906 3.335938 -7.171875 3.703125 -7.171875 C 4.273438 -7.171875 4.765625 -7.082031 5.171875 -6.90625 C 5.585938 -6.738281 5.925781 -6.484375 6.1875 -6.140625 C 6.34375 -5.929688 6.453125 -5.671875 6.515625 -5.359375 C 6.578125 -5.054688 6.609375 -4.601562 6.609375 -4 Z M 6.609375 -4 "/>
</symbol>
<symbol overflow="visible" id="glyph1-4">
<path style="stroke:none;" d="M 5.359375 -3.5625 C 5.359375 -4.414062 5.21875 -5.066406 4.9375 -5.515625 C 4.65625 -5.960938 4.25 -6.1875 3.71875 -6.1875 C 3.15625 -6.1875 2.722656 -5.960938 2.421875 -5.515625 C 2.128906 -5.066406 1.984375 -4.414062 1.984375 -3.5625 C 1.984375 -2.695312 2.128906 -2.035156 2.421875 -1.578125 C 2.722656 -1.128906 3.15625 -0.90625 3.71875 -0.90625 C 4.25 -0.90625 4.65625 -1.128906 4.9375 -1.578125 C 5.21875 -2.035156 5.359375 -2.695312 5.359375 -3.5625 Z M 6.515625 -0.453125 C 6.515625 0.597656 6.265625 1.394531 5.765625 1.9375 C 5.273438 2.476562 4.546875 2.75 3.578125 2.75 C 3.265625 2.75 2.929688 2.71875 2.578125 2.65625 C 2.234375 2.601562 1.890625 2.519531 1.546875 2.40625 L 1.546875 1.265625 C 1.953125 1.460938 2.320312 1.601562 2.65625 1.6875 C 2.988281 1.78125 3.296875 1.828125 3.578125 1.828125 C 4.203125 1.828125 4.65625 1.65625 4.9375 1.3125 C 5.21875 0.976562 5.359375 0.445312 5.359375 -0.28125 L 5.359375 -1.109375 C 5.179688 -0.722656 4.929688 -0.429688 4.609375 -0.234375 C 4.296875 -0.046875 3.910156 0.046875 3.453125 0.046875 C 2.640625 0.046875 1.988281 -0.273438 1.5 -0.921875 C 1.007812 -1.578125 0.765625 -2.457031 0.765625 -3.5625 C 0.765625 -4.65625 1.007812 -5.53125 1.5 -6.1875 C 1.988281 -6.84375 2.640625 -7.171875 3.453125 -7.171875 C 3.898438 -7.171875 4.28125 -7.078125 4.59375 -6.890625 C 4.90625 -6.710938 5.160156 -6.4375 5.359375 -6.0625 L 5.359375 -6.96875 L 6.515625 -6.96875 Z M 6.515625 -0.453125 "/>
</symbol>
<symbol overflow="visible" id="glyph1-5">
<path style="stroke:none;" d="M 7.21875 -5.5625 C 6.96875 -5.75 6.71875 -5.882812 6.46875 -5.96875 C 6.21875 -6.0625 5.9375 -6.109375 5.625 -6.109375 C 4.914062 -6.109375 4.367188 -5.878906 3.984375 -5.421875 C 3.609375 -4.972656 3.421875 -4.328125 3.421875 -3.484375 L 3.421875 0 L 2.265625 0 L 2.265625 -7 L 3.421875 -7 L 3.421875 -5.625 C 3.609375 -6.125 3.898438 -6.503906 4.296875 -6.765625 C 4.703125 -7.035156 5.175781 -7.171875 5.71875 -7.171875 C 6 -7.171875 6.257812 -7.132812 6.5 -7.0625 C 6.75 -6.988281 6.988281 -6.878906 7.21875 -6.734375 Z M 7.21875 -5.5625 "/>
</symbol>
<symbol overflow="visible" id="glyph1-6">
<path style="stroke:none;" d="M 4.21875 -6.28125 C 4.363281 -6.582031 4.546875 -6.804688 4.765625 -6.953125 C 4.984375 -7.097656 5.25 -7.171875 5.5625 -7.171875 C 6.125 -7.171875 6.519531 -6.953125 6.75 -6.515625 C 6.976562 -6.078125 7.09375 -5.257812 7.09375 -4.0625 L 7.09375 0 L 6.046875 0 L 6.046875 -4 C 6.046875 -4.988281 5.988281 -5.601562 5.875 -5.84375 C 5.769531 -6.082031 5.570312 -6.203125 5.28125 -6.203125 C 4.945312 -6.203125 4.71875 -6.070312 4.59375 -5.8125 C 4.46875 -5.5625 4.40625 -4.957031 4.40625 -4 L 4.40625 0 L 3.359375 0 L 3.359375 -4 C 3.359375 -5 3.296875 -5.613281 3.171875 -5.84375 C 3.054688 -6.082031 2.84375 -6.203125 2.53125 -6.203125 C 2.226562 -6.203125 2.015625 -6.070312 1.890625 -5.8125 C 1.773438 -5.5625 1.71875 -4.957031 1.71875 -4 L 1.71875 0 L 0.6875 0 L 0.6875 -7 L 1.71875 -7 L 1.71875 -6.40625 C 1.863281 -6.644531 2.035156 -6.832031 2.234375 -6.96875 C 2.441406 -7.101562 2.675781 -7.171875 2.9375 -7.171875 C 3.257812 -7.171875 3.523438 -7.097656 3.734375 -6.953125 C 3.941406 -6.804688 4.101562 -6.582031 4.21875 -6.28125 Z M 4.21875 -6.28125 "/>
</symbol>
<symbol overflow="visible" id="glyph1-7">
<path style="stroke:none;" d="M 6.953125 -3.78125 L 6.953125 -3.21875 L 1.96875 -3.21875 L 1.96875 -3.1875 C 1.96875 -2.425781 2.164062 -1.835938 2.5625 -1.421875 C 2.957031 -1.003906 3.519531 -0.796875 4.25 -0.796875 C 4.613281 -0.796875 4.992188 -0.851562 5.390625 -0.96875 C 5.796875 -1.082031 6.222656 -1.257812 6.671875 -1.5 L 6.671875 -0.359375 C 6.242188 -0.179688 5.828125 -0.046875 5.421875 0.046875 C 5.015625 0.140625 4.617188 0.1875 4.234375 0.1875 C 3.148438 0.1875 2.300781 -0.140625 1.6875 -0.796875 C 1.070312 -1.453125 0.765625 -2.351562 0.765625 -3.5 C 0.765625 -4.613281 1.0625 -5.503906 1.65625 -6.171875 C 2.257812 -6.835938 3.0625 -7.171875 4.0625 -7.171875 C 4.957031 -7.171875 5.660156 -6.867188 6.171875 -6.265625 C 6.691406 -5.660156 6.953125 -4.832031 6.953125 -3.78125 Z M 5.796875 -4.125 C 5.785156 -4.800781 5.628906 -5.3125 5.328125 -5.65625 C 5.023438 -6.007812 4.585938 -6.1875 4.015625 -6.1875 C 3.460938 -6.1875 3.003906 -6.003906 2.640625 -5.640625 C 2.285156 -5.273438 2.078125 -4.769531 2.015625 -4.125 Z M 5.796875 -4.125 "/>
</symbol>
<symbol overflow="visible" id="glyph1-8">
<path style="stroke:none;" d=""/>
</symbol>
<symbol overflow="visible" id="glyph1-9">
<path style="stroke:none;" d="M 6.625 -0.359375 C 6.320312 -0.179688 6.003906 -0.046875 5.671875 0.046875 C 5.347656 0.140625 5.015625 0.1875 4.671875 0.1875 C 3.585938 0.1875 2.738281 -0.132812 2.125 -0.78125 C 1.519531 -1.4375 1.21875 -2.34375 1.21875 -3.5 C 1.21875 -4.644531 1.519531 -5.539062 2.125 -6.1875 C 2.738281 -6.84375 3.585938 -7.171875 4.671875 -7.171875 C 5.015625 -7.171875 5.34375 -7.125 5.65625 -7.03125 C 5.976562 -6.945312 6.300781 -6.8125 6.625 -6.625 L 6.625 -5.421875 C 6.320312 -5.691406 6.015625 -5.882812 5.703125 -6 C 5.398438 -6.125 5.054688 -6.1875 4.671875 -6.1875 C 3.953125 -6.1875 3.398438 -5.953125 3.015625 -5.484375 C 2.628906 -5.023438 2.4375 -4.363281 2.4375 -3.5 C 2.4375 -2.632812 2.628906 -1.96875 3.015625 -1.5 C 3.398438 -1.03125 3.953125 -0.796875 4.671875 -0.796875 C 5.078125 -0.796875 5.4375 -0.851562 5.75 -0.96875 C 6.0625 -1.09375 6.351562 -1.285156 6.625 -1.546875 Z M 6.625 -0.359375 "/>
</symbol>
<symbol overflow="visible" id="glyph1-10">
<path style="stroke:none;" d="M 6.5625 -4.34375 L 6.5625 0 L 5.40625 0 L 5.40625 -4.34375 C 5.40625 -4.96875 5.296875 -5.425781 5.078125 -5.71875 C 4.859375 -6.019531 4.515625 -6.171875 4.046875 -6.171875 C 3.503906 -6.171875 3.085938 -5.976562 2.796875 -5.59375 C 2.515625 -5.21875 2.375 -4.671875 2.375 -3.953125 L 2.375 0 L 1.21875 0 L 1.21875 -9.71875 L 2.375 -9.71875 L 2.375 -5.953125 C 2.570312 -6.347656 2.84375 -6.648438 3.1875 -6.859375 C 3.539062 -7.066406 3.957031 -7.171875 4.4375 -7.171875 C 5.15625 -7.171875 5.6875 -6.9375 6.03125 -6.46875 C 6.382812 -6 6.5625 -5.289062 6.5625 -4.34375 Z M 6.5625 -4.34375 "/>
</symbol>
<symbol overflow="visible" id="glyph1-11">
<path style="stroke:none;" d="M 6.5625 -4.34375 L 6.5625 0 L 5.40625 0 L 5.40625 -4.34375 C 5.40625 -4.96875 5.296875 -5.425781 5.078125 -5.71875 C 4.859375 -6.019531 4.515625 -6.171875 4.046875 -6.171875 C 3.503906 -6.171875 3.085938 -5.976562 2.796875 -5.59375 C 2.515625 -5.21875 2.375 -4.671875 2.375 -3.953125 L 2.375 0 L 1.21875 0 L 1.21875 -7 L 2.375 -7 L 2.375 -5.953125 C 2.570312 -6.347656 2.84375 -6.648438 3.1875 -6.859375 C 3.539062 -7.066406 3.957031 -7.171875 4.4375 -7.171875 C 5.15625 -7.171875 5.6875 -6.9375 6.03125 -6.46875 C 6.382812 -6 6.5625 -5.289062 6.5625 -4.34375 Z M 6.5625 -4.34375 "/>
</symbol>
<symbol overflow="visible" id="glyph1-12">
<path style="stroke:none;" d="M 4.390625 -3.515625 L 4 -3.515625 C 3.332031 -3.515625 2.828125 -3.394531 2.484375 -3.15625 C 2.148438 -2.925781 1.984375 -2.578125 1.984375 -2.109375 C 1.984375 -1.691406 2.109375 -1.363281 2.359375 -1.125 C 2.617188 -0.894531 2.972656 -0.78125 3.421875 -0.78125 C 4.054688 -0.78125 4.550781 -1 4.90625 -1.4375 C 5.269531 -1.875 5.457031 -2.484375 5.46875 -3.265625 L 5.46875 -3.515625 Z M 6.609375 -4 L 6.609375 0 L 5.46875 0 L 5.46875 -1.03125 C 5.21875 -0.613281 4.90625 -0.304688 4.53125 -0.109375 C 4.15625 0.0859375 3.703125 0.1875 3.171875 0.1875 C 2.460938 0.1875 1.894531 -0.015625 1.46875 -0.421875 C 1.039062 -0.828125 0.828125 -1.363281 0.828125 -2.03125 C 0.828125 -2.8125 1.085938 -3.40625 1.609375 -3.8125 C 2.140625 -4.21875 2.910156 -4.421875 3.921875 -4.421875 L 5.46875 -4.421875 L 5.46875 -4.59375 C 5.457031 -5.15625 5.3125 -5.5625 5.03125 -5.8125 C 4.757812 -6.0625 4.316406 -6.1875 3.703125 -6.1875 C 3.304688 -6.1875 2.90625 -6.128906 2.5 -6.015625 C 2.101562 -5.910156 1.71875 -5.75 1.34375 -5.53125 L 1.34375 -6.671875 C 1.769531 -6.835938 2.175781 -6.960938 2.5625 -7.046875 C 2.957031 -7.128906 3.335938 -7.171875 3.703125 -7.171875 C 4.273438 -7.171875 4.765625 -7.082031 5.171875 -6.90625 C 5.585938 -6.738281 5.925781 -6.484375 6.1875 -6.140625 C 6.34375 -5.929688 6.453125 -5.671875 6.515625 -5.359375 C 6.578125 -5.054688 6.609375 -4.601562 6.609375 -4 Z M 2.984375 -10.234375 L 4.734375 -7.890625 L 3.78125 -7.890625 L 1.75 -10.234375 Z M 2.984375 -10.234375 "/>
</symbol>
<symbol overflow="visible" id="glyph1-13">
<path style="stroke:none;" d="M 6.953125 -3.78125 L 6.953125 -3.21875 L 1.96875 -3.21875 L 1.96875 -3.1875 C 1.96875 -2.425781 2.164062 -1.835938 2.5625 -1.421875 C 2.957031 -1.003906 3.519531 -0.796875 4.25 -0.796875 C 4.613281 -0.796875 4.992188 -0.851562 5.390625 -0.96875 C 5.796875 -1.082031 6.222656 -1.257812 6.671875 -1.5 L 6.671875 -0.359375 C 6.242188 -0.179688 5.828125 -0.046875 5.421875 0.046875 C 5.015625 0.140625 4.617188 0.1875 4.234375 0.1875 C 3.148438 0.1875 2.300781 -0.140625 1.6875 -0.796875 C 1.070312 -1.453125 0.765625 -2.351562 0.765625 -3.5 C 0.765625 -4.613281 1.0625 -5.503906 1.65625 -6.171875 C 2.257812 -6.835938 3.0625 -7.171875 4.0625 -7.171875 C 4.957031 -7.171875 5.660156 -6.867188 6.171875 -6.265625 C 6.691406 -5.660156 6.953125 -4.832031 6.953125 -3.78125 Z M 5.796875 -4.125 C 5.785156 -4.800781 5.628906 -5.3125 5.328125 -5.65625 C 5.023438 -6.007812 4.585938 -6.1875 4.015625 -6.1875 C 3.460938 -6.1875 3.003906 -6.003906 2.640625 -5.640625 C 2.285156 -5.273438 2.078125 -4.769531 2.015625 -4.125 Z M 4.8125 -10.234375 L 6.0625 -10.234375 L 4.03125 -7.890625 L 3.0625 -7.890625 Z M 4.8125 -10.234375 "/>
</symbol>
<symbol overflow="visible" id="glyph1-14">
<path style="stroke:none;" d="M 3.84375 -8.984375 L 3.84375 -7 L 6.453125 -7 L 6.453125 -6.109375 L 3.84375 -6.109375 L 3.84375 -2.3125 C 3.84375 -1.789062 3.9375 -1.425781 4.125 -1.21875 C 4.320312 -1.019531 4.664062 -0.921875 5.15625 -0.921875 L 6.453125 -0.921875 L 6.453125 0 L 5.046875 0 C 4.179688 0 3.570312 -0.171875 3.21875 -0.515625 C 2.863281 -0.859375 2.6875 -1.457031 2.6875 -2.3125 L 2.6875 -6.109375 L 0.8125 -6.109375 L 0.8125 -7 L 2.6875 -7 L 2.6875 -8.984375 Z M 3.84375 -8.984375 "/>
</symbol>
<symbol overflow="visible" id="glyph1-15">
<path style="stroke:none;" d="M 2.3125 -4.453125 L 2.3125 -1.03125 L 3.796875 -1.03125 C 4.535156 -1.03125 5.0625 -1.160156 5.375 -1.421875 C 5.6875 -1.679688 5.84375 -2.101562 5.84375 -2.6875 C 5.84375 -3.289062 5.675781 -3.734375 5.34375 -4.015625 C 5.007812 -4.304688 4.492188 -4.453125 3.796875 -4.453125 Z M 2.3125 -8.296875 L 2.3125 -5.484375 L 3.78125 -5.484375 C 4.382812 -5.484375 4.820312 -5.597656 5.09375 -5.828125 C 5.363281 -6.066406 5.5 -6.441406 5.5 -6.953125 C 5.5 -7.429688 5.363281 -7.773438 5.09375 -7.984375 C 4.832031 -8.191406 4.394531 -8.296875 3.78125 -8.296875 Z M 1.03125 -9.328125 L 3.796875 -9.328125 C 4.753906 -9.328125 5.488281 -9.117188 6 -8.703125 C 6.519531 -8.296875 6.78125 -7.710938 6.78125 -6.953125 C 6.78125 -6.390625 6.644531 -5.941406 6.375 -5.609375 C 6.101562 -5.285156 5.691406 -5.082031 5.140625 -5 C 5.753906 -4.90625 6.234375 -4.640625 6.578125 -4.203125 C 6.929688 -3.773438 7.109375 -3.226562 7.109375 -2.5625 C 7.109375 -1.71875 6.828125 -1.078125 6.265625 -0.640625 C 5.710938 -0.210938 4.890625 0 3.796875 0 L 1.03125 0 Z M 1.03125 -9.328125 "/>
</symbol>
<symbol overflow="visible" id="glyph1-16">
<path style="stroke:none;" d="M 3.84375 -6.1875 C 3.257812 -6.1875 2.816406 -5.957031 2.515625 -5.5 C 2.222656 -5.050781 2.078125 -4.382812 2.078125 -3.5 C 2.078125 -2.601562 2.222656 -1.925781 2.515625 -1.46875 C 2.816406 -1.019531 3.257812 -0.796875 3.84375 -0.796875 C 4.4375 -0.796875 4.878906 -1.019531 5.171875 -1.46875 C 5.472656 -1.925781 5.625 -2.601562 5.625 -3.5 C 5.625 -4.382812 5.472656 -5.050781 5.171875 -5.5 C 4.878906 -5.957031 4.4375 -6.1875 3.84375 -6.1875 Z M 3.84375 -7.171875 C 4.820312 -7.171875 5.566406 -6.851562 6.078125 -6.21875 C 6.585938 -5.59375 6.84375 -4.6875 6.84375 -3.5 C 6.84375 -2.300781 6.585938 -1.382812 6.078125 -0.75 C 5.566406 -0.125 4.820312 0.1875 3.84375 0.1875 C 2.875 0.1875 2.132812 -0.125 1.625 -0.75 C 1.113281 -1.382812 0.859375 -2.300781 0.859375 -3.5 C 0.859375 -4.6875 1.113281 -5.59375 1.625 -6.21875 C 2.132812 -6.851562 2.875 -7.171875 3.84375 -7.171875 Z M 3.84375 -7.171875 "/>
</symbol>
<symbol overflow="visible" id="glyph1-17">
<path style="stroke:none;" d="M 1.21875 -2.65625 L 1.21875 -6.984375 L 2.375 -6.984375 L 2.375 -2.65625 C 2.375 -2.019531 2.484375 -1.550781 2.703125 -1.25 C 2.921875 -0.957031 3.265625 -0.8125 3.734375 -0.8125 C 4.273438 -0.8125 4.6875 -1.003906 4.96875 -1.390625 C 5.257812 -1.773438 5.40625 -2.320312 5.40625 -3.03125 L 5.40625 -6.984375 L 6.5625 -6.984375 L 6.5625 0 L 5.40625 0 L 5.40625 -1.046875 C 5.207031 -0.640625 4.929688 -0.332031 4.578125 -0.125 C 4.222656 0.0820312 3.8125 0.1875 3.34375 0.1875 C 2.625 0.1875 2.085938 -0.046875 1.734375 -0.515625 C 1.390625 -0.984375 1.21875 -1.695312 1.21875 -2.65625 Z M 1.21875 -2.65625 "/>
</symbol>
<symbol overflow="visible" id="glyph1-18">
<path style="stroke:none;" d="M 4 -2.53125 C 4 -2.019531 4.09375 -1.628906 4.28125 -1.359375 C 4.46875 -1.097656 4.75 -0.96875 5.125 -0.96875 L 6.453125 -0.96875 L 6.453125 0 L 5 0 C 4.3125 0 3.78125 -0.21875 3.40625 -0.65625 C 3.03125 -1.101562 2.84375 -1.726562 2.84375 -2.53125 L 2.84375 -8.890625 L 1 -8.890625 L 1 -9.796875 L 4 -9.796875 Z M 4 -2.53125 "/>
</symbol>
<symbol overflow="visible" id="glyph1-19">
<path style="stroke:none;" d="M 2.34375 -0.875 L 2.34375 2.65625 L 1.1875 2.65625 L 1.1875 -7 L 2.34375 -7 L 2.34375 -6.109375 C 2.53125 -6.453125 2.785156 -6.710938 3.109375 -6.890625 C 3.429688 -7.078125 3.800781 -7.171875 4.21875 -7.171875 C 5.0625 -7.171875 5.722656 -6.84375 6.203125 -6.1875 C 6.679688 -5.53125 6.921875 -4.625 6.921875 -3.46875 C 6.921875 -2.332031 6.675781 -1.4375 6.1875 -0.78125 C 5.707031 -0.132812 5.050781 0.1875 4.21875 0.1875 C 3.789062 0.1875 3.414062 0.0976562 3.09375 -0.078125 C 2.78125 -0.265625 2.53125 -0.53125 2.34375 -0.875 Z M 5.71875 -3.5 C 5.71875 -4.382812 5.578125 -5.050781 5.296875 -5.5 C 5.015625 -5.957031 4.597656 -6.1875 4.046875 -6.1875 C 3.484375 -6.1875 3.054688 -5.957031 2.765625 -5.5 C 2.484375 -5.050781 2.34375 -4.382812 2.34375 -3.5 C 2.34375 -2.613281 2.484375 -1.941406 2.765625 -1.484375 C 3.054688 -1.023438 3.484375 -0.796875 4.046875 -0.796875 C 4.597656 -0.796875 5.015625 -1.019531 5.296875 -1.46875 C 5.578125 -1.925781 5.71875 -2.601562 5.71875 -3.5 Z M 5.71875 -3.5 "/>
</symbol>
</g>
</defs>
<g id="surface85727">
<rect x="0" y="0" width="1367" height="617" style="fill:rgb(100%,100%,100%);fill-opacity:1;stroke:none;"/>
<path style="fill-rule:evenodd;fill:rgb(100%,100%,100%);fill-opacity:1;stroke-width:0.1;stroke-linecap:butt;stroke-linejoin:miter;stroke:rgb(0%,0%,0%);stroke-opacity:1;stroke-miterlimit:10;" d="M 50.500078 12.5 C 50.223906 12.5 50.000078 12.723828 50.000078 13 L 50.000078 13.8 C 50.000078 14.076172 50.223906 14.3 50.500078 14.3 L 55.192461 14.3 C 55.468633 14.3 55.692461 14.076172 55.692461 13.8 L 55.692461 13 C 55.692461 12.723828 55.468633 12.5 55.192461 12.5 Z M 50.500078 12.5 " transform="matrix(20,0,0,20,-102.4,63)"/>
<g style="fill:rgb(0%,0%,0%);fill-opacity:1;">
  <use xlink:href="#glyph0-1" x="907.589844" y="334.88878"/>
  <use xlink:href="#glyph0-2" x="915.645399" y="334.88878"/>
  <use xlink:href="#glyph0-3" x="920.645399" y="334.88878"/>
  <use xlink:href="#glyph0-2" x="928.423177" y="334.88878"/>
  <use xlink:href="#glyph0-4" x="933.423177" y="334.88878"/>
  <use xlink:href="#glyph0-5" x="937.589844" y="334.88878"/>
  <use xlink:href="#glyph0-6" x="945.645399" y="334.88878"/>
  <use xlink:href="#glyph0-4" x="950.089844" y="334.88878"/>
  <use xlink:href="#glyph0-7" x="954.25651" y="334.88878"/>
  <use xlink:href="#glyph0-2" x="962.867622" y="334.88878"/>
  <use xlink:href="#glyph0-2" x="967.867622" y="334.88878"/>
  <use xlink:href="#glyph0-8" x="972.867622" y="334.88878"/>
  <use xlink:href="#glyph0-9" x="980.645399" y="334.88878"/>
  <use xlink:href="#glyph0-2" x="988.700955" y="334.88878"/>
  <use xlink:href="#glyph0-8" x="993.700955" y="334.88878"/>
</g>
<path style="fill-rule:evenodd;fill:rgb(100%,100%,100%);fill-opacity:1;stroke-width:0.1;stroke-linecap:butt;stroke-linejoin:miter;stroke:rgb(0%,0%,0%);stroke-opacity:1;stroke-miterlimit:10;" d="M 50.000078 5.3 C 49.723906 5.3 49.500078 5.523828 49.500078 5.8 L 49.500078 6.6 C 49.500078 6.876172 49.723906 7.1 50.000078 7.1 L 56.22 7.1 C 56.496172 7.1 56.72 6.876172 56.72 6.6 L 56.72 5.8 C 56.72 5.523828 56.496172 5.3 56.22 5.3 Z M 50.000078 5.3 " transform="matrix(20,0,0,20,-102.4,63)"/>
<g style="fill:rgb(0%,0%,0%);fill-opacity:1;">
  <use xlink:href="#glyph0-1" x="897.457031" y="190.88878"/>
  <use xlink:href="#glyph0-2" x="905.512587" y="190.88878"/>
  <use xlink:href="#glyph0-3" x="910.512587" y="190.88878"/>
  <use xlink:href="#glyph0-2" x="918.290365" y="190.88878"/>
  <use xlink:href="#glyph0-4" x="923.290365" y="190.88878"/>
  <use xlink:href="#glyph0-10" x="927.457031" y="190.88878"/>
  <use xlink:href="#glyph0-6" x="935.512587" y="190.88878"/>
  <use xlink:href="#glyph0-4" x="939.957031" y="190.88878"/>
  <use xlink:href="#glyph0-11" x="944.123698" y="190.88878"/>
  <use xlink:href="#glyph0-9" x="948.012587" y="190.88878"/>
  <use xlink:href="#glyph0-12" x="956.068142" y="190.88878"/>
  <use xlink:href="#glyph0-2" x="959.679253" y="190.88878"/>
  <use xlink:href="#glyph0-12" x="964.679253" y="190.88878"/>
  <use xlink:href="#glyph0-3" x="968.290365" y="190.88878"/>
  <use xlink:href="#glyph0-13" x="976.068142" y="190.88878"/>
  <use xlink:href="#glyph0-12" x="979.679253" y="190.88878"/>
  <use xlink:href="#glyph0-14" x="983.290365" y="190.88878"/>
  <use xlink:href="#glyph0-3" x="989.957031" y="190.88878"/>
  <use xlink:href="#glyph0-2" x="997.734809" y="190.88878"/>
  <use xlink:href="#glyph0-12" x="1002.734809" y="190.88878"/>
  <use xlink:href="#glyph0-15" x="1006.34592" y="190.88878"/>
  <use xlink:href="#glyph0-9" x="1014.123698" y="190.88878"/>
</g>
<path style=" stroke:none;fill-rule:evenodd;fill:rgb(0%,0%,0%);fill-opacity:1;" d="M 969.601562 102 C 969.601562 107.523438 965.121094 112 959.601562 112 C 954.078125 112 949.601562 107.523438 949.601562 102 C 949.601562 96.476562 954.078125 92 959.601562 92 C 965.121094 92 969.601562 96.476562 969.601562 102 "/>
<path style="fill-rule:evenodd;fill:rgb(100%,100%,100%);fill-opacity:1;stroke-width:0.1;stroke-linecap:butt;stroke-linejoin:miter;stroke:rgb(0%,0%,0%);stroke-opacity:1;stroke-miterlimit:10;" d="M 63.17 19 C 62.893828 19 62.67 19.223828 62.67 19.5 L 62.67 20.3 C 62.67 20.576172 62.893828 20.8 63.17 20.8 L 68.629961 20.8 C 68.906133 20.8 69.129961 20.576172 69.129961 20.3 L 69.129961 19.5 C 69.129961 19.223828 68.906133 19 68.629961 19 Z M 63.17 19 " transform="matrix(20,0,0,20,-102.4,63)"/>
<g style="fill:rgb(0%,0%,0%);fill-opacity:1;">
  <use xlink:href="#glyph0-1" x="1161.03125" y="464.88878"/>
  <use xlink:href="#glyph0-2" x="1169.086806" y="464.88878"/>
  <use xlink:href="#glyph0-3" x="1174.086806" y="464.88878"/>
  <use xlink:href="#glyph0-2" x="1181.864583" y="464.88878"/>
  <use xlink:href="#glyph0-4" x="1186.864583" y="464.88878"/>
  <use xlink:href="#glyph0-16" x="1191.03125" y="464.88878"/>
  <use xlink:href="#glyph0-6" x="1199.086806" y="464.88878"/>
  <use xlink:href="#glyph0-4" x="1203.53125" y="464.88878"/>
  <use xlink:href="#glyph0-17" x="1207.697917" y="464.88878"/>
  <use xlink:href="#glyph0-2" x="1215.753472" y="464.88878"/>
  <use xlink:href="#glyph0-3" x="1220.753472" y="464.88878"/>
  <use xlink:href="#glyph0-2" x="1228.53125" y="464.88878"/>
  <use xlink:href="#glyph0-18" x="1233.53125" y="464.88878"/>
  <use xlink:href="#glyph0-19" x="1241.586806" y="464.88878"/>
  <use xlink:href="#glyph0-20" x="1246.309028" y="464.88878"/>
  <use xlink:href="#glyph0-18" x="1254.364583" y="464.88878"/>
  <use xlink:href="#glyph0-15" x="1262.420139" y="464.88878"/>
</g>
<path style="fill-rule:evenodd;fill:rgb(100%,100%,100%);fill-opacity:1;stroke-width:0.1;stroke-linecap:butt;stroke-linejoin:miter;stroke:rgb(0%,0%,0%);stroke-opacity:1;stroke-miterlimit:10;" d="M 49.689922 25.8 C 49.413945 25.8 49.189922 26.023828 49.189922 26.3 L 49.189922 27.1 C 49.189922 27.376172 49.413945 27.6 49.689922 27.6 L 54.752422 27.6 C 55.028594 27.6 55.252422 27.376172 55.252422 27.1 L 55.252422 26.3 C 55.252422 26.023828 55.028594 25.8 54.752422 25.8 Z M 49.689922 25.8 " transform="matrix(20,0,0,20,-102.4,63)"/>
<g style="fill:rgb(0%,0%,0%);fill-opacity:1;">
  <use xlink:href="#glyph0-1" x="891.339844" y="600.88878"/>
  <use xlink:href="#glyph0-2" x="899.395399" y="600.88878"/>
  <use xlink:href="#glyph0-3" x="904.395399" y="600.88878"/>
  <use xlink:href="#glyph0-2" x="912.173177" y="600.88878"/>
  <use xlink:href="#glyph0-4" x="917.173177" y="600.88878"/>
  <use xlink:href="#glyph0-21" x="921.339844" y="600.88878"/>
  <use xlink:href="#glyph0-6" x="929.395399" y="600.88878"/>
  <use xlink:href="#glyph0-4" x="933.839844" y="600.88878"/>
  <use xlink:href="#glyph0-22" x="938.00651" y="600.88878"/>
  <use xlink:href="#glyph0-23" x="944.395399" y="600.88878"/>
  <use xlink:href="#glyph0-8" x="949.395399" y="600.88878"/>
  <use xlink:href="#glyph0-12" x="957.450955" y="600.88878"/>
  <use xlink:href="#glyph0-9" x="961.062066" y="600.88878"/>
  <use xlink:href="#glyph0-3" x="969.117622" y="600.88878"/>
  <use xlink:href="#glyph0-24" x="976.895399" y="600.88878"/>
  <use xlink:href="#glyph0-8" x="984.950955" y="600.88878"/>
</g>
<path style="fill-rule:evenodd;fill:rgb(100%,100%,100%);fill-opacity:1;stroke-width:0.1;stroke-linecap:butt;stroke-linejoin:miter;stroke:rgb(0%,0%,0%);stroke-opacity:1;stroke-miterlimit:10;" d="M 62.160039 13.75 C 61.883867 13.75 61.660039 13.973828 61.660039 14.25 L 61.660039 15.05 C 61.660039 15.326172 61.883867 15.55 62.160039 15.55 L 66.267461 15.55 C 66.543633 15.55 66.767461 15.326172 66.767461 15.05 L 66.767461 14.25 C 66.767461 13.973828 66.543633 13.75 66.267461 13.75 Z M 62.160039 13.75 " transform="matrix(20,0,0,20,-102.4,63)"/>
<g style="fill:rgb(0%,0%,0%);fill-opacity:1;">
  <use xlink:href="#glyph0-1" x="1140.78125" y="359.88878"/>
  <use xlink:href="#glyph0-2" x="1148.836806" y="359.88878"/>
  <use xlink:href="#glyph0-3" x="1153.836806" y="359.88878"/>
  <use xlink:href="#glyph0-2" x="1161.614583" y="359.88878"/>
  <use xlink:href="#glyph0-4" x="1166.614583" y="359.88878"/>
  <use xlink:href="#glyph0-25" x="1170.78125" y="359.88878"/>
  <use xlink:href="#glyph0-6" x="1178.836806" y="359.88878"/>
  <use xlink:href="#glyph0-4" x="1183.28125" y="359.88878"/>
  <use xlink:href="#glyph0-26" x="1187.447917" y="359.88878"/>
  <use xlink:href="#glyph0-15" x="1195.78125" y="359.88878"/>
  <use xlink:href="#glyph0-18" x="1203.559028" y="359.88878"/>
  <use xlink:href="#glyph0-13" x="1211.614583" y="359.88878"/>
  <use xlink:href="#glyph0-8" x="1215.225694" y="359.88878"/>
</g>
<path style="fill-rule:evenodd;fill:rgb(100%,100%,100%);fill-opacity:1;stroke-width:0.1;stroke-linecap:butt;stroke-linejoin:miter;stroke:rgb(0%,0%,0%);stroke-opacity:1;stroke-miterlimit:10;" d="M 66.129961 25.4 C 65.853789 25.4 65.629961 25.623828 65.629961 25.9 L 65.629961 26.7 C 65.629961 26.976172 65.853789 27.2 66.129961 27.2 L 72.887578 27.2 C 73.163555 27.2 73.387578 26.976172 73.387578 26.7 L 73.387578 25.9 C 73.387578 25.623828 73.163555 25.4 72.887578 25.4 Z M 66.129961 25.4 " transform="matrix(20,0,0,20,-102.4,63)"/>
<g style="fill:rgb(0%,0%,0%);fill-opacity:1;">
  <use xlink:href="#glyph0-1" x="1220.429688" y="592.88878"/>
  <use xlink:href="#glyph0-2" x="1228.485243" y="592.88878"/>
  <use xlink:href="#glyph0-3" x="1233.485243" y="592.88878"/>
  <use xlink:href="#glyph0-2" x="1241.263021" y="592.88878"/>
  <use xlink:href="#glyph0-4" x="1246.263021" y="592.88878"/>
  <use xlink:href="#glyph0-27" x="1250.429688" y="592.88878"/>
  <use xlink:href="#glyph0-6" x="1258.485243" y="592.88878"/>
  <use xlink:href="#glyph0-4" x="1262.929688" y="592.88878"/>
  <use xlink:href="#glyph0-28" x="1267.096354" y="592.88878"/>
  <use xlink:href="#glyph0-8" x="1276.818576" y="592.88878"/>
  <use xlink:href="#glyph0-29" x="1284.596354" y="592.88878"/>
  <use xlink:href="#glyph0-29" x="1291.540799" y="592.88878"/>
  <use xlink:href="#glyph0-8" x="1298.485243" y="592.88878"/>
  <use xlink:href="#glyph0-13" x="1306.263021" y="592.88878"/>
  <use xlink:href="#glyph0-8" x="1309.874132" y="592.88878"/>
  <use xlink:href="#glyph0-23" x="1317.65191" y="592.88878"/>
  <use xlink:href="#glyph0-3" x="1322.929688" y="592.88878"/>
  <use xlink:href="#glyph0-2" x="1330.707465" y="592.88878"/>
  <use xlink:href="#glyph0-12" x="1335.707465" y="592.88878"/>
  <use xlink:href="#glyph0-15" x="1339.318576" y="592.88878"/>
  <use xlink:href="#glyph0-9" x="1347.096354" y="592.88878"/>
</g>
<path style="fill-rule:evenodd;fill:rgb(100%,100%,100%);fill-opacity:1;stroke-width:0.1;stroke-linecap:butt;stroke-linejoin:miter;stroke:rgb(0%,0%,0%);stroke-opacity:1;stroke-miterlimit:10;" d="M 41.97 15.3 C 41.693828 15.3 41.47 15.523828 41.47 15.8 L 41.47 16.6 C 41.47 16.876172 41.693828 17.1 41.97 17.1 L 46.079961 17.1 C 46.356133 17.1 46.579961 16.876172 46.579961 16.6 L 46.579961 15.8 C 46.579961 15.523828 46.356133 15.3 46.079961 15.3 Z M 41.97 15.3 " transform="matrix(20,0,0,20,-102.4,63)"/>
<g style="fill:rgb(0%,0%,0%);fill-opacity:1;">
  <use xlink:href="#glyph0-1" x="737.007813" y="390.88878"/>
  <use xlink:href="#glyph0-2" x="745.063368" y="390.88878"/>
  <use xlink:href="#glyph0-3" x="750.063368" y="390.88878"/>
  <use xlink:href="#glyph0-2" x="757.841146" y="390.88878"/>
  <use xlink:href="#glyph0-4" x="762.841146" y="390.88878"/>
  <use xlink:href="#glyph0-30" x="767.007813" y="390.88878"/>
  <use xlink:href="#glyph0-6" x="775.063368" y="390.88878"/>
  <use xlink:href="#glyph0-4" x="779.507813" y="390.88878"/>
  <use xlink:href="#glyph0-26" x="783.674479" y="390.88878"/>
  <use xlink:href="#glyph0-8" x="792.007813" y="390.88878"/>
  <use xlink:href="#glyph0-14" x="799.78559" y="390.88878"/>
  <use xlink:href="#glyph0-8" x="806.452257" y="390.88878"/>
  <use xlink:href="#glyph0-2" x="814.230035" y="390.88878"/>
</g>
<path style="fill:none;stroke-width:0.1;stroke-linecap:butt;stroke-linejoin:miter;stroke:rgb(0%,0%,0%);stroke-opacity:1;stroke-miterlimit:10;" d="M 52.912188 11.600391 L 53.075273 7.15 " transform="matrix(20,0,0,20,-102.4,63)"/>
<path style="fill-rule:evenodd;fill:rgb(0%,0%,0%);fill-opacity:1;stroke-width:0.1;stroke-linecap:butt;stroke-linejoin:miter;stroke:rgb(0%,0%,0%);stroke-opacity:1;stroke-miterlimit:10;" d="M 52.662383 11.591406 L 52.882891 12.4 L 53.161992 11.60957 Z M 52.662383 11.591406 " transform="matrix(20,0,0,20,-102.4,63)"/>
<path style="fill:none;stroke-width:0.1;stroke-linecap:butt;stroke-linejoin:miter;stroke:rgb(0%,0%,0%);stroke-opacity:1;stroke-miterlimit:10;" d="M 60.764922 14.270703 L 55.742656 13.718555 " transform="matrix(20,0,0,20,-102.4,63)"/>
<path style="fill-rule:evenodd;fill:rgb(0%,0%,0%);fill-opacity:1;stroke-width:0.1;stroke-linecap:butt;stroke-linejoin:miter;stroke:rgb(0%,0%,0%);stroke-opacity:1;stroke-miterlimit:10;" d="M 60.737578 14.519336 L 61.560234 14.358203 L 60.792266 14.022266 Z M 60.737578 14.519336 " transform="matrix(20,0,0,20,-102.4,63)"/>
<path style="fill:none;stroke-width:0.1;stroke-linecap:butt;stroke-linejoin:miter;stroke:rgb(0%,0%,0%);stroke-opacity:1;stroke-miterlimit:10;" d="M 65.334844 18.140625 L 64.518828 15.6 " transform="matrix(20,0,0,20,-102.4,63)"/>
<path style="fill-rule:evenodd;fill:rgb(0%,0%,0%);fill-opacity:1;stroke-width:0.1;stroke-linecap:butt;stroke-linejoin:miter;stroke:rgb(0%,0%,0%);stroke-opacity:1;stroke-miterlimit:10;" d="M 65.096953 18.216992 L 65.57957 18.902344 L 65.57293 18.064258 Z M 65.096953 18.216992 " transform="matrix(20,0,0,20,-102.4,63)"/>
<path style="fill:none;stroke-width:0.1;stroke-linecap:butt;stroke-linejoin:miter;stroke:rgb(0%,0%,0%);stroke-opacity:1;stroke-miterlimit:10;" d="M 68.555352 24.60918 L 66.43582 20.850391 " transform="matrix(20,0,0,20,-102.4,63)"/>
<path style="fill-rule:evenodd;fill:rgb(0%,0%,0%);fill-opacity:1;stroke-width:0.1;stroke-linecap:butt;stroke-linejoin:miter;stroke:rgb(0%,0%,0%);stroke-opacity:1;stroke-miterlimit:10;" d="M 68.337578 24.732031 L 68.94832 25.306055 L 68.773125 24.486328 Z M 68.337578 24.732031 " transform="matrix(20,0,0,20,-102.4,63)"/>
<path style="fill:none;stroke-width:0.1;stroke-linecap:butt;stroke-linejoin:miter;stroke:rgb(0%,0%,0%);stroke-opacity:1;stroke-miterlimit:10;" d="M 56.152617 26.608984 L 65.581523 26.39082 " transform="matrix(20,0,0,20,-102.4,63)"/>
<path style="fill-rule:evenodd;fill:rgb(0%,0%,0%);fill-opacity:1;stroke-width:0.1;stroke-linecap:butt;stroke-linejoin:miter;stroke:rgb(0%,0%,0%);stroke-opacity:1;stroke-miterlimit:10;" d="M 56.146758 26.35918 L 55.352813 26.627539 L 56.158281 26.858984 Z M 56.146758 26.35918 " transform="matrix(20,0,0,20,-102.4,63)"/>
<path style="fill:none;stroke-width:0.1;stroke-linecap:butt;stroke-linejoin:miter;stroke:rgb(0%,0%,0%);stroke-opacity:1;stroke-miterlimit:10;" d="M 54.893438 25.37168 L 63.988945 20.85 " transform="matrix(20,0,0,20,-102.4,63)"/>
<path style="fill-rule:evenodd;fill:rgb(0%,0%,0%);fill-opacity:1;stroke-width:0.1;stroke-linecap:butt;stroke-linejoin:miter;stroke:rgb(0%,0%,0%);stroke-opacity:1;stroke-miterlimit:10;" d="M 54.782109 25.147656 L 54.177031 25.727734 L 55.004766 25.595508 Z M 54.782109 25.147656 " transform="matrix(20,0,0,20,-102.4,63)"/>
<path style="fill:none;stroke-width:0.1;stroke-linecap:butt;stroke-linejoin:miter;stroke:rgb(0%,0%,0%);stroke-opacity:1;stroke-miterlimit:10;" d="M 53.765117 25.148828 L 63.269609 15.598828 " transform="matrix(20,0,0,20,-102.4,63)"/>
<path style="fill-rule:evenodd;fill:rgb(0%,0%,0%);fill-opacity:1;stroke-width:0.1;stroke-linecap:butt;stroke-linejoin:miter;stroke:rgb(0%,0%,0%);stroke-opacity:1;stroke-miterlimit:10;" d="M 53.587969 24.972461 L 53.200664 25.71582 L 53.942266 25.325195 Z M 53.587969 24.972461 " transform="matrix(20,0,0,20,-102.4,63)"/>
<path style="fill:none;stroke-width:0.1;stroke-linecap:butt;stroke-linejoin:miter;stroke:rgb(0%,0%,0%);stroke-opacity:1;stroke-miterlimit:10;" d="M 52.305742 24.900781 L 52.801641 14.350195 " transform="matrix(20,0,0,20,-102.4,63)"/>
<path style="fill-rule:evenodd;fill:rgb(0%,0%,0%);fill-opacity:1;stroke-width:0.1;stroke-linecap:butt;stroke-linejoin:miter;stroke:rgb(0%,0%,0%);stroke-opacity:1;stroke-miterlimit:10;" d="M 52.056133 24.889063 L 52.268242 25.699805 L 52.555547 24.9125 Z M 52.056133 24.889063 " transform="matrix(20,0,0,20,-102.4,63)"/>
<path style="fill:none;stroke-width:0.1;stroke-linecap:butt;stroke-linejoin:miter;stroke:rgb(0%,0%,0%);stroke-opacity:1;stroke-miterlimit:10;" d="M 45.459844 14.620508 L 52.246563 7.150391 " transform="matrix(20,0,0,20,-102.4,63)"/>
<path style="fill-rule:evenodd;fill:rgb(0%,0%,0%);fill-opacity:1;stroke-width:0.1;stroke-linecap:butt;stroke-linejoin:miter;stroke:rgb(0%,0%,0%);stroke-opacity:1;stroke-miterlimit:10;" d="M 45.274883 14.452344 L 44.921953 15.212695 L 45.645 14.788672 Z M 45.274883 14.452344 " transform="matrix(20,0,0,20,-102.4,63)"/>
<path style="fill:none;stroke-width:0.1;stroke-linecap:butt;stroke-linejoin:miter;stroke:rgb(0%,0%,0%);stroke-opacity:1;stroke-miterlimit:10;" d="M 53.105742 4.401563 L 53.10125 2.500391 " transform="matrix(20,0,0,20,-102.4,63)"/>
<path style="fill-rule:evenodd;fill:rgb(0%,0%,0%);fill-opacity:1;stroke-width:0.1;stroke-linecap:butt;stroke-linejoin:miter;stroke:rgb(0%,0%,0%);stroke-opacity:1;stroke-miterlimit:10;" d="M 52.855742 4.402148 L 53.107695 5.201563 L 53.355742 4.400977 Z M 52.855742 4.402148 " transform="matrix(20,0,0,20,-102.4,63)"/>
<path style="fill-rule:evenodd;fill:rgb(100%,100%,100%);fill-opacity:1;stroke-width:0.1;stroke-linecap:butt;stroke-linejoin:miter;stroke:rgb(0%,0%,0%);stroke-opacity:1;stroke-miterlimit:10;" d="M 13.500078 0.45 C 13.003008 0.45 12.600078 0.85293 12.600078 1.35 C 12.600078 1.84707 13.003008 2.25 13.500078 2.25 L 17.110039 2.25 C 17.607109 2.25 18.010039 1.84707 18.010039 1.35 C 18.010039 0.85293 17.607109 0.45 17.110039 0.45 Z M 13.500078 0.45 " transform="matrix(20,0,0,20,-102.4,63)"/>
<g style="fill:rgb(0%,0%,0%);fill-opacity:1;">
  <use xlink:href="#glyph0-31" x="159.675781" y="93.88878"/>
  <use xlink:href="#glyph0-3" x="168.56467" y="93.88878"/>
  <use xlink:href="#glyph0-13" x="176.342448" y="93.88878"/>
  <use xlink:href="#glyph0-29" x="179.953559" y="93.88878"/>
  <use xlink:href="#glyph0-18" x="186.898003" y="93.88878"/>
  <use xlink:href="#glyph0-13" x="194.953559" y="93.88878"/>
  <use xlink:href="#glyph0-4" x="198.56467" y="93.88878"/>
  <use xlink:href="#glyph0-32" x="202.731337" y="93.88878"/>
  <use xlink:href="#glyph0-12" x="210.231337" y="93.88878"/>
  <use xlink:href="#glyph0-2" x="213.842448" y="93.88878"/>
  <use xlink:href="#glyph0-8" x="218.842448" y="93.88878"/>
  <use xlink:href="#glyph0-14" x="226.620226" y="93.88878"/>
  <use xlink:href="#glyph0-14" x="233.286892" y="93.88878"/>
  <use xlink:href="#glyph0-8" x="239.953559" y="93.88878"/>
</g>
<path style="fill-rule:evenodd;fill:rgb(100%,100%,100%);fill-opacity:1;stroke-width:0.1;stroke-linecap:butt;stroke-linejoin:miter;stroke:rgb(0%,0%,0%);stroke-opacity:1;stroke-miterlimit:10;" d="M 6.12 5.05 C 5.62293 5.05 5.22 5.45293 5.22 5.95 C 5.22 6.44707 5.62293 6.85 6.12 6.85 L 10.308086 6.85 C 10.805156 6.85 11.208086 6.44707 11.208086 5.95 C 11.208086 5.45293 10.805156 5.05 10.308086 5.05 Z M 6.12 5.05 " transform="matrix(20,0,0,20,-102.4,63)"/>
<g style="fill:rgb(0%,0%,0%);fill-opacity:1;">
  <use xlink:href="#glyph0-33" x="12.175781" y="185.88878"/>
  <use xlink:href="#glyph0-8" x="23.286892" y="185.88878"/>
  <use xlink:href="#glyph0-14" x="31.06467" y="185.88878"/>
  <use xlink:href="#glyph0-18" x="37.731337" y="185.88878"/>
  <use xlink:href="#glyph0-23" x="45.786892" y="185.88878"/>
  <use xlink:href="#glyph0-8" x="50.509115" y="185.88878"/>
  <use xlink:href="#glyph0-4" x="58.56467" y="185.88878"/>
  <use xlink:href="#glyph0-29" x="62.731337" y="185.88878"/>
  <use xlink:href="#glyph0-3" x="69.675781" y="185.88878"/>
  <use xlink:href="#glyph0-34" x="77.453559" y="185.88878"/>
  <use xlink:href="#glyph0-2" x="85.509115" y="185.88878"/>
  <use xlink:href="#glyph0-8" x="90.509115" y="185.88878"/>
  <use xlink:href="#glyph0-18" x="98.286892" y="185.88878"/>
  <use xlink:href="#glyph0-23" x="106.342448" y="185.88878"/>
</g>
<path style="fill-rule:evenodd;fill:rgb(100%,100%,100%);fill-opacity:1;stroke-width:0.1;stroke-linecap:butt;stroke-linejoin:miter;stroke:rgb(0%,0%,0%);stroke-opacity:1;stroke-miterlimit:10;" d="M 6.139922 9.1 C 5.642852 9.1 5.239922 9.50293 5.239922 10 C 5.239922 10.49707 5.642852 10.9 6.139922 10.9 L 10.817461 10.9 C 11.314531 10.9 11.717461 10.49707 11.717461 10 C 11.717461 9.50293 11.314531 9.1 10.817461 9.1 Z M 6.139922 9.1 " transform="matrix(20,0,0,20,-102.4,63)"/>
<g style="fill:rgb(0%,0%,0%);fill-opacity:1;">
  <use xlink:href="#glyph0-31" x="12.46875" y="266.88878"/>
  <use xlink:href="#glyph0-3" x="21.357639" y="266.88878"/>
  <use xlink:href="#glyph0-13" x="29.135417" y="266.88878"/>
  <use xlink:href="#glyph0-29" x="32.746528" y="266.88878"/>
  <use xlink:href="#glyph0-18" x="39.690972" y="266.88878"/>
  <use xlink:href="#glyph0-13" x="47.746528" y="266.88878"/>
  <use xlink:href="#glyph0-4" x="51.357639" y="266.88878"/>
  <use xlink:href="#glyph0-35" x="55.524306" y="266.88878"/>
  <use xlink:href="#glyph0-3" x="66.079861" y="266.88878"/>
  <use xlink:href="#glyph0-2" x="73.857639" y="266.88878"/>
  <use xlink:href="#glyph0-2" x="78.857639" y="266.88878"/>
  <use xlink:href="#glyph0-36" x="83.857639" y="266.88878"/>
  <use xlink:href="#glyph0-37" x="96.357639" y="266.88878"/>
  <use xlink:href="#glyph0-2" x="104.135417" y="266.88878"/>
  <use xlink:href="#glyph0-23" x="109.135417" y="266.88878"/>
  <use xlink:href="#glyph0-8" x="113.857639" y="266.88878"/>
</g>
<path style="fill-rule:evenodd;fill:rgb(100%,100%,100%);fill-opacity:1;stroke-width:0.1;stroke-linecap:butt;stroke-linejoin:miter;stroke:rgb(0%,0%,0%);stroke-opacity:1;stroke-miterlimit:10;" d="M 15.860039 12.25 C 15.362969 12.25 14.960039 12.65293 14.960039 13.15 C 14.960039 13.64707 15.362969 14.05 15.860039 14.05 L 26.962578 14.05 C 27.459648 14.05 27.862578 13.64707 27.862578 13.15 C 27.862578 12.65293 27.459648 12.25 26.962578 12.25 Z M 15.860039 12.25 " transform="matrix(20,0,0,20,-102.4,63)"/>
<g style="fill:rgb(0%,0%,0%);fill-opacity:1;">
  <use xlink:href="#glyph0-38" x="206.800781" y="329.88878"/>
  <use xlink:href="#glyph0-8" x="216.800781" y="329.88878"/>
  <use xlink:href="#glyph0-14" x="224.578559" y="329.88878"/>
  <use xlink:href="#glyph0-2" x="231.245226" y="329.88878"/>
  <use xlink:href="#glyph0-12" x="236.245226" y="329.88878"/>
  <use xlink:href="#glyph0-15" x="239.856337" y="329.88878"/>
  <use xlink:href="#glyph0-9" x="247.634115" y="329.88878"/>
  <use xlink:href="#glyph0-4" x="255.68967" y="329.88878"/>
  <use xlink:href="#glyph0-39" x="259.856337" y="329.88878"/>
  <use xlink:href="#glyph0-8" x="267.911892" y="329.88878"/>
  <use xlink:href="#glyph0-14" x="275.68967" y="329.88878"/>
  <use xlink:href="#glyph0-4" x="282.356337" y="329.88878"/>
  <use xlink:href="#glyph0-39" x="286.523003" y="329.88878"/>
  <use xlink:href="#glyph0-23" x="294.578559" y="329.88878"/>
  <use xlink:href="#glyph0-3" x="299.856337" y="329.88878"/>
  <use xlink:href="#glyph0-34" x="307.634115" y="329.88878"/>
  <use xlink:href="#glyph0-8" x="315.68967" y="329.88878"/>
  <use xlink:href="#glyph0-3" x="323.467448" y="329.88878"/>
  <use xlink:href="#glyph0-18" x="331.245226" y="329.88878"/>
  <use xlink:href="#glyph0-40" x="339.300781" y="329.88878"/>
  <use xlink:href="#glyph0-4" x="346.800781" y="329.88878"/>
  <use xlink:href="#glyph0-39" x="350.967448" y="329.88878"/>
  <use xlink:href="#glyph0-41" x="359.023003" y="329.88878"/>
  <use xlink:href="#glyph0-12" x="362.634115" y="329.88878"/>
  <use xlink:href="#glyph0-9" x="366.245226" y="329.88878"/>
  <use xlink:href="#glyph0-2" x="374.300781" y="329.88878"/>
  <use xlink:href="#glyph0-8" x="379.300781" y="329.88878"/>
  <use xlink:href="#glyph0-23" x="387.078559" y="329.88878"/>
  <use xlink:href="#glyph0-23" x="392.356337" y="329.88878"/>
  <use xlink:href="#glyph0-18" x="397.634115" y="329.88878"/>
  <use xlink:href="#glyph0-34" x="405.68967" y="329.88878"/>
  <use xlink:href="#glyph0-2" x="413.745226" y="329.88878"/>
  <use xlink:href="#glyph0-12" x="418.745226" y="329.88878"/>
  <use xlink:href="#glyph0-15" x="422.356337" y="329.88878"/>
  <use xlink:href="#glyph0-9" x="430.134115" y="329.88878"/>
  <use xlink:href="#glyph0-14" x="438.18967" y="329.88878"/>
</g>
<path style="fill-rule:evenodd;fill:rgb(100%,100%,100%);fill-opacity:1;stroke-width:0.1;stroke-linecap:butt;stroke-linejoin:miter;stroke:rgb(0%,0%,0%);stroke-opacity:1;stroke-miterlimit:10;" d="M 22.029961 5.8 C 21.532891 5.8 21.129961 6.20293 21.129961 6.7 C 21.129961 7.19707 21.532891 7.6 22.029961 7.6 L 29.752422 7.6 C 30.249492 7.6 30.652422 7.19707 30.652422 6.7 C 30.652422 6.20293 30.249492 5.8 29.752422 5.8 Z M 22.029961 5.8 " transform="matrix(20,0,0,20,-102.4,63)"/>
<g style="fill:rgb(0%,0%,0%);fill-opacity:1;">
  <use xlink:href="#glyph0-33" x="330.152344" y="200.88878"/>
  <use xlink:href="#glyph0-12" x="341.263455" y="200.88878"/>
  <use xlink:href="#glyph0-14" x="344.874566" y="200.88878"/>
  <use xlink:href="#glyph0-8" x="351.541233" y="200.88878"/>
  <use xlink:href="#glyph0-4" x="359.31901" y="200.88878"/>
  <use xlink:href="#glyph0-42" x="363.485677" y="200.88878"/>
  <use xlink:href="#glyph0-4" x="371.263455" y="200.88878"/>
  <use xlink:href="#glyph0-43" x="375.430122" y="200.88878"/>
  <use xlink:href="#glyph0-15" x="379.041233" y="200.88878"/>
  <use xlink:href="#glyph0-18" x="386.81901" y="200.88878"/>
  <use xlink:href="#glyph0-23" x="394.874566" y="200.88878"/>
  <use xlink:href="#glyph0-4" x="400.152344" y="200.88878"/>
  <use xlink:href="#glyph0-36" x="404.31901" y="200.88878"/>
  <use xlink:href="#glyph0-3" x="416.81901" y="200.88878"/>
  <use xlink:href="#glyph0-29" x="424.596788" y="200.88878"/>
  <use xlink:href="#glyph0-44" x="431.541233" y="200.88878"/>
  <use xlink:href="#glyph0-12" x="439.596788" y="200.88878"/>
  <use xlink:href="#glyph0-9" x="443.207899" y="200.88878"/>
  <use xlink:href="#glyph0-8" x="451.263455" y="200.88878"/>
  <use xlink:href="#glyph0-4" x="459.041233" y="200.88878"/>
  <use xlink:href="#glyph0-42" x="463.207899" y="200.88878"/>
  <use xlink:href="#glyph0-4" x="470.985677" y="200.88878"/>
  <use xlink:href="#glyph0-45" x="475.152344" y="200.88878"/>
  <use xlink:href="#glyph0-2" x="482.930122" y="200.88878"/>
  <use xlink:href="#glyph0-3" x="487.930122" y="200.88878"/>
  <use xlink:href="#glyph0-2" x="495.707899" y="200.88878"/>
</g>
<path style="fill:none;stroke-width:0.1;stroke-linecap:butt;stroke-linejoin:miter;stroke:rgb(0%,0%,0%);stroke-opacity:1;stroke-miterlimit:10;" d="M 10.389922 4.538477 L 13.84207 2.299023 " transform="matrix(20,0,0,20,-102.4,63)"/>
<path style="fill-rule:evenodd;fill:rgb(0%,0%,0%);fill-opacity:1;stroke-width:0.1;stroke-linecap:butt;stroke-linejoin:miter;stroke:rgb(0%,0%,0%);stroke-opacity:1;stroke-miterlimit:10;" d="M 10.253984 4.328711 L 9.718828 4.973828 L 10.526055 4.748242 Z M 10.253984 4.328711 " transform="matrix(20,0,0,20,-102.4,63)"/>
<path style="fill:none;stroke-width:0.1;stroke-linecap:butt;stroke-linejoin:miter;stroke:rgb(0%,0%,0%);stroke-opacity:1;stroke-miterlimit:10;" d="M 8.361211 8.202148 L 8.276055 6.899805 " transform="matrix(20,0,0,20,-102.4,63)"/>
<path style="fill-rule:evenodd;fill:rgb(0%,0%,0%);fill-opacity:1;stroke-width:0.1;stroke-linecap:butt;stroke-linejoin:miter;stroke:rgb(0%,0%,0%);stroke-opacity:1;stroke-miterlimit:10;" d="M 8.111797 8.218359 L 8.413359 9.000391 L 8.610625 8.185742 Z M 8.111797 8.218359 " transform="matrix(20,0,0,20,-102.4,63)"/>
<path style="fill:none;stroke-width:0.1;stroke-linecap:butt;stroke-linejoin:miter;stroke:rgb(0%,0%,0%);stroke-opacity:1;stroke-miterlimit:10;" d="M 16.689141 11.999805 L 11.767461 10.800977 " transform="matrix(20,0,0,20,-102.4,63)"/>
<path style="fill-rule:evenodd;fill:rgb(0%,0%,0%);fill-opacity:1;stroke-width:0.1;stroke-linecap:butt;stroke-linejoin:miter;stroke:rgb(0%,0%,0%);stroke-opacity:1;stroke-miterlimit:10;" d="M 16.630156 12.242773 L 17.466484 12.189258 L 16.74832 11.757031 Z M 16.630156 12.242773 " transform="matrix(20,0,0,20,-102.4,63)"/>
<path style="fill:none;stroke-width:0.1;stroke-linecap:butt;stroke-linejoin:miter;stroke:rgb(0%,0%,0%);stroke-opacity:1;stroke-miterlimit:10;" d="M 24.590313 8.311523 L 21.411211 12.25 " transform="matrix(20,0,0,20,-102.4,63)"/>
<path style="fill-rule:evenodd;fill:rgb(0%,0%,0%);fill-opacity:1;stroke-width:0.1;stroke-linecap:butt;stroke-linejoin:miter;stroke:rgb(0%,0%,0%);stroke-opacity:1;stroke-miterlimit:10;" d="M 24.784844 8.468555 L 25.092852 7.689063 L 24.395781 8.154492 Z M 24.784844 8.468555 " transform="matrix(20,0,0,20,-102.4,63)"/>
<path style="fill:none;stroke-width:0.1;stroke-linecap:butt;stroke-linejoin:miter;stroke:rgb(0%,0%,0%);stroke-opacity:1;stroke-miterlimit:10;" d="M 17.934844 2.679102 L 24.02 5.754297 " transform="matrix(20,0,0,20,-102.4,63)"/>
<path style="fill-rule:evenodd;fill:rgb(0%,0%,0%);fill-opacity:1;stroke-width:0.1;stroke-linecap:butt;stroke-linejoin:miter;stroke:rgb(0%,0%,0%);stroke-opacity:1;stroke-miterlimit:10;" d="M 18.047539 2.455859 L 17.220781 2.318164 L 17.822148 2.902148 Z M 18.047539 2.455859 " transform="matrix(20,0,0,20,-102.4,63)"/>
<path style="fill-rule:evenodd;fill:rgb(100%,100%,100%);fill-opacity:1;stroke-width:0.1;stroke-linecap:butt;stroke-linejoin:miter;stroke:rgb(0%,0%,0%);stroke-opacity:1;stroke-miterlimit:10;" d="M 47.850078 -1 L 57.389922 -1 L 57.989922 -0.4 L 57.989922 0.7 L 47.850078 0.7 Z M 47.850078 -1 " transform="matrix(20,0,0,20,-102.4,63)"/>
<path style="fill:none;stroke-width:0.05;stroke-linecap:butt;stroke-linejoin:miter;stroke:rgb(0%,0%,0%);stroke-opacity:1;stroke-miterlimit:10;" d="M 57.389922 -1 L 57.389922 -0.4 L 57.989922 -0.4 " transform="matrix(20,0,0,20,-102.4,63)"/>
<g style="fill:rgb(0%,0%,0%);fill-opacity:1;">
  <use xlink:href="#glyph1-1" x="861.601562" y="67.88878"/>
  <use xlink:href="#glyph1-2" x="869.37934" y="67.88878"/>
  <use xlink:href="#glyph1-3" x="877.157118" y="67.88878"/>
  <use xlink:href="#glyph1-4" x="884.934896" y="67.88878"/>
  <use xlink:href="#glyph1-5" x="892.712674" y="67.88878"/>
  <use xlink:href="#glyph1-3" x="900.490451" y="67.88878"/>
  <use xlink:href="#glyph1-6" x="908.268229" y="67.88878"/>
  <use xlink:href="#glyph1-6" x="916.046007" y="67.88878"/>
  <use xlink:href="#glyph1-7" x="923.823785" y="67.88878"/>
  <use xlink:href="#glyph1-8" x="931.601563" y="67.88878"/>
  <use xlink:href="#glyph1-6" x="939.37934" y="67.88878"/>
  <use xlink:href="#glyph1-3" x="947.157118" y="67.88878"/>
  <use xlink:href="#glyph1-9" x="954.934896" y="67.88878"/>
  <use xlink:href="#glyph1-10" x="962.712674" y="67.88878"/>
  <use xlink:href="#glyph1-2" x="970.490451" y="67.88878"/>
  <use xlink:href="#glyph1-11" x="978.268229" y="67.88878"/>
  <use xlink:href="#glyph1-7" x="986.046007" y="67.88878"/>
  <use xlink:href="#glyph1-8" x="993.823785" y="67.88878"/>
  <use xlink:href="#glyph1-12" x="1001.601563" y="67.88878"/>
  <use xlink:href="#glyph1-8" x="1009.37934" y="67.88878"/>
  <use xlink:href="#glyph1-13" x="1017.157118" y="67.88878"/>
  <use xlink:href="#glyph1-14" x="1024.934896" y="67.88878"/>
  <use xlink:href="#glyph1-3" x="1032.712674" y="67.88878"/>
  <use xlink:href="#glyph1-14" x="1040.490451" y="67.88878"/>
</g>
<path style="fill-rule:evenodd;fill:rgb(100%,100%,100%);fill-opacity:1;stroke-width:0.1;stroke-linecap:butt;stroke-linejoin:miter;stroke:rgb(0%,0%,0%);stroke-opacity:1;stroke-miterlimit:10;" d="M 11.600078 -3.05 L 18.445 -3.05 L 19.045 -2.45 L 19.045 -1.35 L 11.600078 -1.35 Z M 11.600078 -3.05 " transform="matrix(20,0,0,20,-102.4,63)"/>
<path style="fill:none;stroke-width:0.05;stroke-linecap:butt;stroke-linejoin:miter;stroke:rgb(0%,0%,0%);stroke-opacity:1;stroke-miterlimit:10;" d="M 18.445 -3.05 L 18.445 -2.45 L 19.045 -2.45 " transform="matrix(20,0,0,20,-102.4,63)"/>
<g style="fill:rgb(0%,0%,0%);fill-opacity:1;">
  <use xlink:href="#glyph1-15" x="136.601563" y="26.88878"/>
  <use xlink:href="#glyph1-16" x="144.37934" y="26.88878"/>
  <use xlink:href="#glyph1-17" x="152.157118" y="26.88878"/>
  <use xlink:href="#glyph1-9" x="159.934896" y="26.88878"/>
  <use xlink:href="#glyph1-18" x="167.712674" y="26.88878"/>
  <use xlink:href="#glyph1-7" x="175.490451" y="26.88878"/>
  <use xlink:href="#glyph1-8" x="183.268229" y="26.88878"/>
  <use xlink:href="#glyph1-19" x="191.046007" y="26.88878"/>
  <use xlink:href="#glyph1-5" x="198.823785" y="26.88878"/>
  <use xlink:href="#glyph1-2" x="206.601562" y="26.88878"/>
  <use xlink:href="#glyph1-11" x="214.37934" y="26.88878"/>
  <use xlink:href="#glyph1-9" x="222.157118" y="26.88878"/>
  <use xlink:href="#glyph1-2" x="229.934896" y="26.88878"/>
  <use xlink:href="#glyph1-19" x="237.712674" y="26.88878"/>
  <use xlink:href="#glyph1-3" x="245.490451" y="26.88878"/>
  <use xlink:href="#glyph1-18" x="253.268229" y="26.88878"/>
  <use xlink:href="#glyph1-7" x="261.046007" y="26.88878"/>
</g>
</g>
</svg>
