<svg version="1.2" xmlns="http://www.w3.org/2000/svg" viewBox="0 0 139 100" width="139" height="100">
  <path d="M70.41 34.87c.16-.32.38-.43.32-.38 0 .06-.1.59-.32 1.18-.37 1.23-1.93 7.22-2.57 10.21-.76 3.48-1.88 9.25-2.37 12.52-.53 3.15-.91 6.41-2.09 15.34-.48 3.59-.8 6.05-1.07 7.22-1.07 4.82-2.09 7.44-3.97 10.16-1.45 2.09-2.53 3.16-5.1 4.71-2.31 1.5-4.94 2.3-7.62 2.51-.97 0-3.44-.21-4.35-.53-2.95-.8-4.83-3.48-5.74-8.24-.38-1.98-.43-3.26-.27-5.18.21-3.48 1.82-8.4 3.54-10.81 1.02-1.39 2.85-3.05 4.24-3.69 1.02-.53 3.17-.85 3.92-.75.27.06.59.16.75.11.32 0 .38 0 .43.22.05.21.27.26.75.16.22-.06.22.05.06.32-.06.16 0 .26.16.37.1.16.32.27.37.27.38.11.11 1.17-.32 1.34-.16.05-.38.16-.59.37-.11.21-.27.32-.32.32-.43.11-1.93 1.71-2.69 2.83-.69 1.07-1.5 3-1.93 4.6-1.18 4.28-.8 8.61 1.13 11.66.37.64 1.29 1.5 1.5 1.45.22.05 1.34-.75 1.93-1.34.59-.59 1.72-1.87 2.1-2.41.96-1.55 1.93-4.22 2.36-6.84.37-2.14.91-6.96 1.29-11.98.59-7.43 1.02-11.45 1.18-12.68.05-.16-.27.22-.65.75-1.39 1.93-1.77 2.36-3.11 3-1.02.53-2.09.75-4.19.8-.48.05-2.25-.43-2.79-.8-.32-.16-.59-.43-.8-.7-.16.27-.38.54-.54.8-1.72 2.46-2.41 3.27-3.97 4.34-1.18.85-1.82 1.23-3.27 1.65-1.29.38-1.56.43-2.58.49-2.09.05-4.72-.33-5.63-.86-.22-.11-.7-.32-1.02-.43-1.56-.64-2.8-1.92-3.71-3.85-.16-.48-.32-.91-.37-1.07-.06-.16-.7.64-3.44 4.71-3.27 4.76-4.24 6.04-5.26 7.06-.64.69-1.55 1.33-2.14 1.6-.49.16-2.04.64-2.15.59h-.81c-1.55 0-4.07-.48-5.31-1.07-.91-.48-1.77-1.55-2.36-2.89-.43-.85-.97-3.58-.97-4.92-.05-2.67.43-6.31 1.13-8.98.81-2.94 2.52-6.47 4.56-9.09 2.04-2.78 3.71-4.55 5.21-5.46 2.95-1.92 8.37-1.71 11.43.59.59.38 1.07.8 1.29 1.18.21.26.43.48.43.48.1 0 .27-.32.43-.7.91-1.87 2.89-3.9 4.24-4.49.75-.32 2.14-.48 2.2-.27 0 .06.05.06.37 0 .32-.05.59-.05.65-.05.16.05.16.11.05.38-.16.53-.16.58.21.37.22-.11.43-.21.59-.27.22-.1.76.06.76.11s-.16.32-.43.69c-.27.38-.65 1.07-.97 1.61 0 .11-.05.16-.11.27 0 .1.06.21.06.32.59-.97 1.18-1.82 1.45-2.14.32-.32.75-.48.96-.27.22.16.11.16-.05.43-.54.48-.75.91-1.29 1.98-.48 1.07-.64 1.6-.21.91.53-.97 1.93-2.68 2.25-2.73.16-.05.05.32-.32.85-.32.49-.81 1.61-1.08 2.3 0 .11.33-.37.76-1.01.69-1.07.96-1.29 1.02-1.07 0 .16-.11.43-.92 2.03-.64 1.39-1.23 3.16-1.93 5.78-.86 2.99-1.13 4.92-1.23 7.16 0 .8.32 3.37.48 3.32.16-.06.97-.75 1.77-1.55 1.02-1.07 2.04-2.46 4.03-5.4 2.57-3.86 4.13-6.48 6.28-10.7.48-.91.91-1.76 1.12-2.14 1.08-2.67 2.31-5.35 3.38-6.9 1.56-2.3 3.01-3.58 4.51-4.12 1.18-.42 2.68-.53 3.76-.42.48.05.96.16 1.13.1.05-.05.69.06 1.39.27 1.4.48 2.9 1.28 3.44 1.93l.21.26.27-.21c.05-.05.43-.37.7-.59.21-.11.48-.43.53-.43.11-.16.43 0 .38.27-.06.27.05.27.37-.05.16-.27.59-.43.65-.27 0 0 0 .16-.06.43-.05.43-.05.53.22.27.37-.43.75-.65.91-.59.22.1.22.21 0 .8-.21.48-.32 1.18-.21 1.23.05 0 .32-.27.64-.75.54-.75.64-.85 1.07-.75.27.16.33.27 0 .75-.69.96-1.87 3.64-1.55 3.58 0 0 .16-.26.43-.64.75-1.39 1.61-2.78 1.82-2.89.22-.16.27-.21.48 0 .11.11.11.22-.05.49-.27.37-.8 1.71-.8 1.76 0 0 .26-.11.43-.37.21-.32.53-.7.75-.81.37-.32.43-.42.53-.26.11.05.06.26-.05.42-.21.27-.48.97-.43 1.13l.32-.32zm-51.04 15.4l.06.05s0-.05-.06-.05zm-9.76 16.2c0 .05.32-.32 2.2-2.83.69-1.02 2.52-3.53 4.02-5.67 1.45-2.09 2.85-3.96 2.95-4.23.16-.26.22-.42.16-1.23-.05-1.33-.85-3.9-1.28-4.06 0-.05-.33.27-.75.64-.86.91-2.42 3.05-3.22 4.55-1.24 2.4-2.58 6.04-3.33 8.87-.27 1.39-.81 3.8-.75 3.96zm41.7-16.74c-.59 2.62-.33 2.41.43-.37 1.44-4.92 2.79-8.66 3.97-10.96.21-.43.43-.86.37-.86-.1-.11-1.23 1.76-1.66 2.89-1.02 2.35-2.42 6.68-3.11 9.3zm6.33-9.46l.21-.43-.26-.91c-.11-.48-.27-.91-.38-1.07-.11-.21-.11-.11-.54.59-.69 1.12-1.23 2.41-1.93 4.22-.64 1.82-1.82 5.57-1.82 5.62 0 .11.05 0 .1-.16.11-.16 1.08-1.87 2.2-3.85 1.08-1.87 2.1-3.64 2.42-4.01zm24.58-28.83c-.05.16-.43-.48-.38-.91-.1-.48.16-2.88.38-4.22.48-2.57 1.56-5.24 2.25-5.78.22-.16.22-.1.27.06.06.16.06.48 0 .75-.05.1-.05.21-.05.32h.16c.05-.06.05-.16.11-.27.16-.27.32-.69.53-.91.16-.37.22-.43.54-.43.11-.05.32 0 .38 0 0 .11-.06.32-.22.7-.11.32-.27.75-.32.91.05.16 0 .27-.05.32.05.05.16.11.21.16v-.05C86.62.86 87 .32 87.21.27c.22-.06.59.16.59.21 0 .11-.16.43-.43.8-.27.48-.54 1.07-.75 1.66.05.16.11.38.11.59.05.05.05.16.1.21.65-1.39 1.24-2.56 1.51-2.78.21-.16.27-.1.64.06l.38.26-.43.7c-.75 1.12-1.13 2.14-.81 2.08.11 0 .27-.21.54-.58.8-.86 1.5-1.5 1.66-1.45.27-.05.81.48.86.64 0 0-.11.16-.32.38-.32.27-1.13 1.6-1.02 1.66 0 0 .43-.27.86-.65.48-.32.91-.64 1.07-.69.11 0 .27.05.38.27.27.32.32.48-.06.64-.1.05-.37.32-.64.69-.21.38-.38.64-.38.64 0 .06.38-.1.76-.32.8-.42 1.12-.48 1.18-.16 0 .16-.06.27-.33.48-.32.22-1.12 1.18-.96 1.13.11 0 .32-.06.54-.16.32-.22.8-.38.8-.32.05.21-.43.91-.86 1.28-.8.64-1.82 2.83-2.57 5.67-.27.85-.49 1.23-1.02 1.66-.38.21-.59.32-.76.21-.21-.05-.21-.16-.1-.48.16-.75.05-.8-.59-.11-.59.43-.59.48-.75.38-.06-.06-.11-.22 0-.54.16-.8.05-.8-.54-.21-.59.43-.7.37-.59-.43.05-.11.05-.21.05-.32l-.32-.16-.11.11c-.21.16-.43.37-.43.37-.1.05-.26 0-.26-.05-.11-.11-.17-.43 0-1.34v-.11c-.06-.16-.17-.37-.27-.53-.11.32-.16.69-.22.96l-.16.48-.21-.21c-.33-.27-.33-.27-.22-1.5.06-.27.06-.64.11-1.07-.11-.21-.22-.37-.32-.59-.11-.21-.22-.43-.27-.64-.06.21-.11.43-.11.64-.16.91-.27 1.71-.32 1.71zm41.43 16.37c.05.1-.16.91-.27 1.6-2.09 2.68-6.65 5.35-10.14 5.24-1.56-.1-3.44-.48-4.67-.96-1.02-.43-5.31-2.41-6.28-3.1-1.34 2.94-1.39 5.67-1.13 13.42l1.4 14.81c-.75 1.13-.97 1.39-1.34 1.71-.32.33-.49.38-.59.22 0 0 0-.16.05-.27.11-.32.48-1.07.91-1.76-.1 0-.26.05-.37.05-.22.43-.43.86-.54 1.02-.16.16-.16.32-.11.32.06.05.06.05-.05 0 0 0-.21.1-.43.32-.43.37-.75.48-.7.21.06-.11 0-.27 0-.32 0-.05.11-.37.27-.75.22-.37.22-.69.22-.69-.11-.06-.33.37-.65.85-.64 1.07-.86 1.18-1.02.43-.05-.32-.16-.53-.16-.53-.11-.06-.16.1-.27.37-.1.27-.21.43-.32.37-.32-.1-.54-.32-.59-.53-.05-.32-.8-.86-.91-.7-.06.11 0 .27 0 .33 0 .16-.22.1-.59-.06-.38-.21-.86-.96-1.13-1.6l-.27-.54.32 1.71-.32-.1c-.53-.16-1.02-1.02-1.66-2.73-.38-1.28-1.24-3.16-1.29-3.05-.16.11.05 1.55.22 1.98.16.32.42 1.07.64 1.66.27.59.48 1.23.48 1.28.11.11.06.05-.32-.11-.54-.37-1.29-1.28-1.72-2.3-.1-.21-.21-.53-.32-.9-1.66 2.4-3.33 4.59-4.61 5.99-.97 1.12-1.67 1.6-2.8 2.03-.96.43-1.18.48-2.3.53-1.02.11-3.6-.05-4.62-.43-.53-.16-1.5-.85-2.14-1.76-.6-.8-.92-1.66-1.24-3.21-.59-3.05-.48-6.31.16-10.43.91-5.93 2.58-12.35 4.35-17.22 1.61-4.49 2.36-6.41 2.95-7.16.7-.96 2.63-2.14 2.74-1.66.05.16.05.11.32 0s.8-.21.91-.16c.11.05.06.21 0 .37-.16.16-.11.33-.11.33s.22-.06.43-.27c.38-.32.59-.38 1.02-.22l.27.11-.21.59c-.38.8-.59 1.5-.49 1.55.06.05.22-.21.38-.48.7-1.07 1.18-1.45 1.82-1.07l.38.27-.21.21c-.17.11-.33.37-.54.59-.32.48-.81 1.34-1.18 2.3l-.27.59.38-.49c.21-.26.64-.85 1.02-1.39.37-.53.8-1.01.96-1.12.38-.21.38-.21.65-.11.42.27.48.43.1.65-.32.21-.96 1.23-1.12 1.71-.11.32-.11.32.8-.48.7-.81 1.18-.97 1.29-.75.11.16 0 .27-.05.27-.17.1-1.19 1.55-1.13 1.71 0 .05.21-.16.48-.43.54-.54.65-.64.86-.43.11.21-.27 1.07-.7 1.39-1.07 1.02-4.24 11.66-5.69 19.36-.43 1.98-1.07 6.42-1.02 6.74.06.1.65-.64 2.2-2.84 2.1-3.05 3.87-5.88 6.44-10.42.49-2.95 1.13-6.05 1.83-8.99.91-3.69 1.56-5.56 2.25-6.58.43-.64 1.34-1.76 2.2-2.24.43-.27.81-.43 1.45-.54.91-.16 1.45-.21 1.67-.21 1.93 0 4.29-.27 7.83 2.25.81.58.91.58 1.56 1.76.43.69.8 1.71 1.07 2.14.54.75 1.24 1.5 1.4 1.55.16.05.86 0 1.61-.43 1.12-.64 2.25-1.17 3.22-1.98.53-.37 1.02-.69 1.02-.69.05-.06.05.05.16.1l.1.22.33-.32c.32-.27.53-.27.48.16-.11.21.11.27.54-.06.21-.21.37-.32.53-.26l.27.05-.05.43c-.16.43-.11.64-.06.64.06 0 .27-.21.54-.43.43-.48.54-.48.81-.32l.32.11-.43.64c-.65 1.18-.54 1.18.91-.16.11-.16.22-.16.38-.05.21.21.21.21-.38.96-.32.48-.64.91-.7 1.02-.05.21-.05.21.16.1.17-.05.49-.43.92-.75.75-.75.8-.75.86-.58.05 0-.17.42-.49.9-.96 1.29-.86 1.45.16.43.33-.32.7-.59.7-.53zM63.38 67.27s0-.05 0 0z" fill="#00AC8B"/>
  <path d="M74.65 70.86c1.5 0 2.42.8 2.42 2.03 0 1.23-.92 2.03-2.42 2.03h-1.02v2.99h-1.18v-7.05h2.2zm-1.07 1.01v2.09h1.07c.7 0 1.13-.38 1.13-1.07 0-.64-.43-1.02-1.13-1.02h-1.07zm11.81 2.52c0 2.03-1.51 3.74-3.76 3.74-2.2 0-3.76-1.71-3.76-3.74 0-2.04 1.5-3.75 3.76-3.75 2.2.06 3.76 1.77 3.76 3.75zm-1.24 0c0-1.5-1.07-2.63-2.52-2.63-1.5 0-2.52 1.18-2.52 2.63 0 1.49 1.07 2.62 2.52 2.62 1.5.05 2.52-1.13 2.52-2.62zm7.09-3.53h1.18v4.33c0 1.82-1.08 2.88-2.79 2.88-1.72 0-2.8-1.06-2.8-2.88v-4.33h1.13v4.43c0 1.13.65 1.72 1.67 1.72.96 0 1.61-.65 1.61-1.72v-4.43zm5.15 0c1.5 0 2.41.8 2.41 2.03 0 .85-.43 1.5-1.12 1.82l2.25 3.2h-1.4l-1.98-2.99h-1.02v2.99H94.4v-7.05h1.99zm-.86 1.01v2.09h.91c.7 0 1.13-.38 1.13-1.07 0-.64-.43-1.02-1.13-1.02h-.91zm9.34-1.01v5.98h2.79v1.07h-3.97v-7.05h1.18zm6.38 0h1.56l2.74 7.05h-1.24l-.75-1.97h-3.11l-.75 1.97h-1.24l2.79-7.05zm1.94 4.11l-1.18-3.04-1.19 3.04h2.37zm-35.75 6.1v1.07h-2.3v5.99h-1.19v-5.99H71.7v-1.07h5.74zm3.38 0c1.51 0 2.42.8 2.42 2.03 0 .86-.43 1.5-1.13 1.82l2.26 3.21h-1.4l-1.99-3h-.96v3h-1.13v-7.06h1.93zm-.8 1.02v2.08h.91c.7 0 1.13-.37 1.13-1.07 0-.64-.43-1.01-1.13-1.01h-.91zm7.57-1.02h1.55l2.74 7.06h-1.23l-.76-1.98h-3.11l-.75 1.98H84.8l2.79-7.06zm.75 1.07l-1.18 3.05h2.36l-1.18-3.05zm6.38-1.07l3.65 5.56v-5.56h1.18v7.06h-1.5l-3.65-5.56v5.56h-1.13v-7.06h1.45zm7.2 5.29c.42.59 1.02.91 1.66.91.7 0 1.07-.43 1.07-.96 0-1.39-3.32-1.18-3.32-3.48 0-1.07.85-1.97 2.14-1.97 1.02 0 1.77.48 2.36 1.17l-.86.75c-.42-.59-.91-.91-1.5-.91s-.96.38-.96.91c0 1.39 3.32 1.18 3.32 3.48 0 1.23-.96 2.03-2.25 2.03-1.13 0-1.88-.43-2.52-1.18l.86-.75zm5.68-5.29h1.13v7.06h-1.13v-7.06zm8.32 0v1.07h-2.25v5.99h-1.18v-5.99h-2.26v-1.07h5.69zm1.45 0h1.13v7.06h-1.13v-7.06zm10.2 3.53c0 2.03-1.5 3.74-3.76 3.74-2.2 0-3.75-1.71-3.75-3.74 0-2.03 1.5-3.74 3.75-3.74 2.26 0 3.76 1.71 3.76 3.74zm-1.24 0c0-1.5-1.07-2.62-2.52-2.62-1.5 0-2.52 1.18-2.52 2.62 0 1.5 1.07 2.62 2.52 2.62 1.5 0 2.52-1.12 2.52-2.62zm4.3-3.53l3.65 5.56v-5.56h1.18v7.06h-1.5l-3.65-5.56v5.56h-1.13v-7.06h1.45zM72.45 91.28h3.97v1.02h-2.79v1.98h2.36v1.01h-2.36v2.09h2.79v1.02h-3.97v-7.12zm1.45-.64l1.13-1.34h1.23l-1.29 1.34H73.9zm9.34 5.72l.91.7c-.64.85-1.72 1.44-3 1.44-2.2 0-3.76-1.71-3.76-3.74 0-2.03 1.5-3.74 3.76-3.74 1.28 0 2.3.58 3 1.44l-.91.7a2.425 2.425 0 00-2.04-1.07c-1.5 0-2.52 1.17-2.52 2.62 0 1.49 1.07 2.62 2.52 2.62.86.1 1.61-.32 2.04-.97zm9.18-1.55c0 2.03-1.51 3.75-3.76 3.75-2.2 0-3.76-1.72-3.76-3.75 0-2.03 1.51-3.74 3.76-3.74s3.76 1.71 3.76 3.74zm-1.18 0c0-1.49-1.08-2.62-2.53-2.62-1.5 0-2.52 1.18-2.52 2.62 0 1.5 1.07 2.62 2.52 2.62s2.53-1.17 2.53-2.62zm3.91-3.53v5.99h2.79v1.07h-3.97v-7.06h1.18zm10.79 3.53c0 2.03-1.5 3.75-3.76 3.75-2.2 0-3.75-1.72-3.75-3.75 0-2.03 1.5-3.74 3.75-3.74 2.26 0 3.76 1.71 3.76 3.74zm-1.18 0c0-1.49-1.07-2.62-2.52-2.62-1.51 0-2.52 1.18-2.52 2.62 0 1.5 1.07 2.62 2.52 2.62s2.52-1.17 2.52-2.62zm8.1 1.82v-1.39h-1.93v-1.07h3.11v2.89c-.64.85-1.77 1.44-3.11 1.44-2.31 0-3.81-1.71-3.81-3.74 0-2.03 1.5-3.74 3.76-3.74 1.29 0 2.31.58 3 1.44l-.91.7a2.425 2.425 0 00-2.04-1.07c-1.5 0-2.52 1.17-2.52 2.62 0 1.49 1.13 2.62 2.63 2.62.7.1 1.34-.22 1.82-.7zm2.96-5.35h1.12v7.06h-1.12v-7.06zm11.27 7.65v.96c-.22.06-.43.11-.7.11-.7 0-1.45-.27-2.15-.91l-.86-.75c-.37.11-.7.16-1.12.16-2.2 0-3.76-1.71-3.76-3.74 0-2.03 1.5-3.74 3.76-3.74 2.2 0 3.75 1.71 3.75 3.74 0 1.23-.59 2.35-1.5 3.05l.54.48c.59.53 1.07.69 1.55.69.16 0 .38 0 .49-.05zm-2.26-4.12c0-1.49-1.07-2.62-2.52-2.62-1.5 0-2.52 1.18-2.52 2.62 0 1.5 1.07 2.62 2.52 2.62s2.52-1.17 2.52-2.62zm8.27-3.53v4.33c0 1.82-1.08 2.89-2.79 2.89-1.72 0-2.79-1.07-2.79-2.89v-4.33h1.12v4.44c0 1.12.65 1.71 1.67 1.71.96 0 1.61-.64 1.61-1.71v-4.44h1.18zm1.93 0H139v1.02h-2.79v1.98h2.41v1.01h-2.41v2.09H139v1.02h-3.97v-7.12z" fill="#000091"/>
</svg>