ISO-10303-21;
HEADER;
/* Generated by software containing ST-Developer
 * from STEP Tools, Inc. (www.steptools.com) 
 */

FILE_DESCRIPTION(
/* description */ (''),
/* implementation_level */ '2;1');

FILE_NAME(
/* name */ 
'D:\\\X2\041F0420041E0415041A0422042B\X0\\\\X2\041F043E043A0443043F043D
044B0435\X0\ \X2\044D043B0435043C0435043D0442044B\X0\\\\X2\043B0438043D
04350439043D044B0435\X0\ \X2\043F043E043404480438043F043D0438043A0438\X0\\\
LME25UU.stp',
/* time_stamp */ '2014-03-05T20:07:02+04:00',
/* author */ ('User'),
/* organization */ (''),
/* preprocessor_version */ 'ST-DEVELOPER v15.2',
/* originating_system */ 'Autodesk Inventor 2014',
/* authorisation */ '');

FILE_SCHEMA (('AUTOMOTIVE_DESIGN { 1 0 10303 214 3 1 1 }'));
ENDSEC;

DATA;
#10=SHAPE_REPRESENTATION_RELATIONSHIP('SRR','None',#349,#11);
#11=ADVANCED_BREP_SHAPE_REPRESENTATION($,(#190),#340);
#12=STYLED_ITEM($,(#357),#190);
#13=PLANE($,#197);
#14=PLANE($,#201);
#15=PLANE($,#211);
#16=PLANE($,#215);
#17=PLANE($,#219);
#18=PLANE($,#223);
#19=CYLINDRICAL_SURFACE($,#195,12.5);
#20=CYLINDRICAL_SURFACE($,#205,20.);
#21=CYLINDRICAL_SURFACE($,#209,20.);
#22=CYLINDRICAL_SURFACE($,#213,18.75);
#23=CYLINDRICAL_SURFACE($,#217,20.);
#24=CYLINDRICAL_SURFACE($,#221,18.75);
#25=FACE_BOUND($,#58,.T.);
#26=FACE_BOUND($,#60,.T.);
#27=FACE_BOUND($,#62,.T.);
#28=FACE_BOUND($,#64,.T.);
#29=FACE_BOUND($,#66,.T.);
#30=FACE_BOUND($,#68,.T.);
#31=FACE_BOUND($,#70,.T.);
#32=FACE_BOUND($,#72,.T.);
#33=FACE_BOUND($,#74,.T.);
#34=FACE_BOUND($,#76,.T.);
#35=FACE_BOUND($,#78,.T.);
#36=FACE_BOUND($,#79,.T.);
#37=FACE_BOUND($,#80,.T.);
#38=FACE_BOUND($,#82,.T.);
#39=FACE_BOUND($,#84,.T.);
#40=FACE_BOUND($,#86,.T.);
#41=FACE_BOUND($,#87,.T.);
#42=FACE_BOUND($,#88,.T.);
#43=FACE_OUTER_BOUND($,#57,.T.);
#44=FACE_OUTER_BOUND($,#59,.T.);
#45=FACE_OUTER_BOUND($,#61,.T.);
#46=FACE_OUTER_BOUND($,#63,.T.);
#47=FACE_OUTER_BOUND($,#65,.T.);
#48=FACE_OUTER_BOUND($,#67,.T.);
#49=FACE_OUTER_BOUND($,#69,.T.);
#50=FACE_OUTER_BOUND($,#71,.T.);
#51=FACE_OUTER_BOUND($,#73,.T.);
#52=FACE_OUTER_BOUND($,#75,.T.);
#53=FACE_OUTER_BOUND($,#77,.T.);
#54=FACE_OUTER_BOUND($,#81,.T.);
#55=FACE_OUTER_BOUND($,#83,.T.);
#56=FACE_OUTER_BOUND($,#85,.T.);
#57=EDGE_LOOP($,(#137));
#58=EDGE_LOOP($,(#138));
#59=EDGE_LOOP($,(#139));
#60=EDGE_LOOP($,(#140));
#61=EDGE_LOOP($,(#141));
#62=EDGE_LOOP($,(#142));
#63=EDGE_LOOP($,(#143));
#64=EDGE_LOOP($,(#144));
#65=EDGE_LOOP($,(#145));
#66=EDGE_LOOP($,(#146));
#67=EDGE_LOOP($,(#147));
#68=EDGE_LOOP($,(#148));
#69=EDGE_LOOP($,(#149));
#70=EDGE_LOOP($,(#150));
#71=EDGE_LOOP($,(#151));
#72=EDGE_LOOP($,(#152));
#73=EDGE_LOOP($,(#153));
#74=EDGE_LOOP($,(#154));
#75=EDGE_LOOP($,(#155));
#76=EDGE_LOOP($,(#156));
#77=EDGE_LOOP($,(#157));
#78=EDGE_LOOP($,(#158));
#79=EDGE_LOOP($,(#159));
#80=EDGE_LOOP($,(#160));
#81=EDGE_LOOP($,(#161));
#82=EDGE_LOOP($,(#162));
#83=EDGE_LOOP($,(#163));
#84=EDGE_LOOP($,(#164));
#85=EDGE_LOOP($,(#165));
#86=EDGE_LOOP($,(#166));
#87=EDGE_LOOP($,(#167));
#88=EDGE_LOOP($,(#168));
#89=CIRCLE($,#193,12.5);
#90=CIRCLE($,#194,13.);
#91=CIRCLE($,#196,12.5);
#92=CIRCLE($,#198,19.5);
#93=CIRCLE($,#200,13.);
#94=CIRCLE($,#202,19.5);
#95=CIRCLE($,#204,20.);
#96=CIRCLE($,#206,20.);
#97=CIRCLE($,#208,20.);
#98=CIRCLE($,#210,20.);
#99=CIRCLE($,#212,18.75);
#100=CIRCLE($,#214,18.75);
#101=CIRCLE($,#216,20.);
#102=CIRCLE($,#218,20.);
#103=CIRCLE($,#220,18.75);
#104=CIRCLE($,#222,18.75);
#105=VERTEX_POINT($,#292);
#106=VERTEX_POINT($,#294);
#107=VERTEX_POINT($,#297);
#108=VERTEX_POINT($,#300);
#109=VERTEX_POINT($,#303);
#110=VERTEX_POINT($,#306);
#111=VERTEX_POINT($,#309);
#112=VERTEX_POINT($,#312);
#113=VERTEX_POINT($,#315);
#114=VERTEX_POINT($,#318);
#115=VERTEX_POINT($,#321);
#116=VERTEX_POINT($,#324);
#117=VERTEX_POINT($,#327);
#118=VERTEX_POINT($,#330);
#119=VERTEX_POINT($,#333);
#120=VERTEX_POINT($,#336);
#121=EDGE_CURVE($,#105,#105,#89,.T.);
#122=EDGE_CURVE($,#106,#106,#90,.T.);
#123=EDGE_CURVE($,#107,#107,#91,.T.);
#124=EDGE_CURVE($,#108,#108,#92,.T.);
#125=EDGE_CURVE($,#109,#109,#93,.T.);
#126=EDGE_CURVE($,#110,#110,#94,.T.);
#127=EDGE_CURVE($,#111,#111,#95,.T.);
#128=EDGE_CURVE($,#112,#112,#96,.T.);
#129=EDGE_CURVE($,#113,#113,#97,.T.);
#130=EDGE_CURVE($,#114,#114,#98,.T.);
#131=EDGE_CURVE($,#115,#115,#99,.T.);
#132=EDGE_CURVE($,#116,#116,#100,.T.);
#133=EDGE_CURVE($,#117,#117,#101,.T.);
#134=EDGE_CURVE($,#118,#118,#102,.T.);
#135=EDGE_CURVE($,#119,#119,#103,.T.);
#136=EDGE_CURVE($,#120,#120,#104,.T.);
#137=ORIENTED_EDGE($,*,*,#121,.T.);
#138=ORIENTED_EDGE($,*,*,#122,.T.);
#139=ORIENTED_EDGE($,*,*,#123,.F.);
#140=ORIENTED_EDGE($,*,*,#121,.F.);
#141=ORIENTED_EDGE($,*,*,#124,.F.);
#142=ORIENTED_EDGE($,*,*,#122,.F.);
#143=ORIENTED_EDGE($,*,*,#125,.T.);
#144=ORIENTED_EDGE($,*,*,#123,.T.);
#145=ORIENTED_EDGE($,*,*,#126,.F.);
#146=ORIENTED_EDGE($,*,*,#125,.F.);
#147=ORIENTED_EDGE($,*,*,#124,.T.);
#148=ORIENTED_EDGE($,*,*,#127,.T.);
#149=ORIENTED_EDGE($,*,*,#128,.F.);
#150=ORIENTED_EDGE($,*,*,#127,.F.);
#151=ORIENTED_EDGE($,*,*,#129,.T.);
#152=ORIENTED_EDGE($,*,*,#126,.T.);
#153=ORIENTED_EDGE($,*,*,#130,.T.);
#154=ORIENTED_EDGE($,*,*,#129,.F.);
#155=ORIENTED_EDGE($,*,*,#128,.T.);
#156=ORIENTED_EDGE($,*,*,#131,.F.);
#157=ORIENTED_EDGE($,*,*,#131,.T.);
#158=ORIENTED_EDGE($,*,*,#132,.F.);
#159=ORIENTED_EDGE($,*,*,#132,.T.);
#160=ORIENTED_EDGE($,*,*,#133,.F.);
#161=ORIENTED_EDGE($,*,*,#133,.T.);
#162=ORIENTED_EDGE($,*,*,#134,.F.);
#163=ORIENTED_EDGE($,*,*,#134,.T.);
#164=ORIENTED_EDGE($,*,*,#135,.F.);
#165=ORIENTED_EDGE($,*,*,#135,.T.);
#166=ORIENTED_EDGE($,*,*,#136,.F.);
#167=ORIENTED_EDGE($,*,*,#136,.T.);
#168=ORIENTED_EDGE($,*,*,#130,.F.);
#169=CONICAL_SURFACE($,#192,12.75,45.0000000000001);
#170=CONICAL_SURFACE($,#199,12.75,45.0000000000001);
#171=CONICAL_SURFACE($,#203,19.75,45.0000000000001);
#172=CONICAL_SURFACE($,#207,19.75,45.0000000000001);
#173=ADVANCED_FACE($,(#43,#25),#169,.F.);
#174=ADVANCED_FACE($,(#44,#26),#19,.F.);
#175=ADVANCED_FACE($,(#45,#27),#13,.T.);
#176=ADVANCED_FACE($,(#46,#28),#170,.F.);
#177=ADVANCED_FACE($,(#47,#29),#14,.T.);
#178=ADVANCED_FACE($,(#48,#30),#171,.T.);
#179=ADVANCED_FACE($,(#49,#31),#20,.T.);
#180=ADVANCED_FACE($,(#50,#32),#172,.T.);
#181=ADVANCED_FACE($,(#51,#33),#21,.T.);
#182=ADVANCED_FACE($,(#52,#34),#15,.T.);
#183=ADVANCED_FACE($,(#53,#35),#22,.T.);
#184=ADVANCED_FACE($,(#36,#37),#16,.T.);
#185=ADVANCED_FACE($,(#54,#38),#23,.T.);
#186=ADVANCED_FACE($,(#55,#39),#17,.T.);
#187=ADVANCED_FACE($,(#56,#40),#24,.T.);
#188=ADVANCED_FACE($,(#41,#42),#18,.T.);
#189=CLOSED_SHELL($,(#173,#174,#175,#176,#177,#178,#179,#180,#181,#182,
#183,#184,#185,#186,#187,#188));
#190=MANIFOLD_SOLID_BREP('\X2\04220432043504400434043E0435\X0\ \X2\0442
0435043B043E\X0\1',#189);
#191=AXIS2_PLACEMENT_3D('placement',#290,#224,#225);
#192=AXIS2_PLACEMENT_3D($,#291,#226,#227);
#193=AXIS2_PLACEMENT_3D($,#293,#228,#229);
#194=AXIS2_PLACEMENT_3D($,#295,#230,#231);
#195=AXIS2_PLACEMENT_3D($,#296,#232,#233);
#196=AXIS2_PLACEMENT_3D($,#298,#234,#235);
#197=AXIS2_PLACEMENT_3D($,#299,#236,#237);
#198=AXIS2_PLACEMENT_3D($,#301,#238,#239);
#199=AXIS2_PLACEMENT_3D($,#302,#240,#241);
#200=AXIS2_PLACEMENT_3D($,#304,#242,#243);
#201=AXIS2_PLACEMENT_3D($,#305,#244,#245);
#202=AXIS2_PLACEMENT_3D($,#307,#246,#247);
#203=AXIS2_PLACEMENT_3D($,#308,#248,#249);
#204=AXIS2_PLACEMENT_3D($,#310,#250,#251);
#205=AXIS2_PLACEMENT_3D($,#311,#252,#253);
#206=AXIS2_PLACEMENT_3D($,#313,#254,#255);
#207=AXIS2_PLACEMENT_3D($,#314,#256,#257);
#208=AXIS2_PLACEMENT_3D($,#316,#258,#259);
#209=AXIS2_PLACEMENT_3D($,#317,#260,#261);
#210=AXIS2_PLACEMENT_3D($,#319,#262,#263);
#211=AXIS2_PLACEMENT_3D($,#320,#264,#265);
#212=AXIS2_PLACEMENT_3D($,#322,#266,#267);
#213=AXIS2_PLACEMENT_3D($,#323,#268,#269);
#214=AXIS2_PLACEMENT_3D($,#325,#270,#271);
#215=AXIS2_PLACEMENT_3D($,#326,#272,#273);
#216=AXIS2_PLACEMENT_3D($,#328,#274,#275);
#217=AXIS2_PLACEMENT_3D($,#329,#276,#277);
#218=AXIS2_PLACEMENT_3D($,#331,#278,#279);
#219=AXIS2_PLACEMENT_3D($,#332,#280,#281);
#220=AXIS2_PLACEMENT_3D($,#334,#282,#283);
#221=AXIS2_PLACEMENT_3D($,#335,#284,#285);
#222=AXIS2_PLACEMENT_3D($,#337,#286,#287);
#223=AXIS2_PLACEMENT_3D($,#338,#288,#289);
#224=DIRECTION('axis',(0.,0.,1.));
#225=DIRECTION('refdir',(1.,0.,0.));
#226=DIRECTION('center_axis',(-1.,0.,0.));
#227=DIRECTION('ref_axis',(0.,-1.,0.));
#228=DIRECTION('center_axis',(1.,0.,0.));
#229=DIRECTION('ref_axis',(0.,-1.,0.));
#230=DIRECTION('center_axis',(-1.,0.,0.));
#231=DIRECTION('ref_axis',(0.,-1.,0.));
#232=DIRECTION('center_axis',(1.,0.,0.));
#233=DIRECTION('ref_axis',(0.,1.,0.));
#234=DIRECTION('center_axis',(-1.,0.,0.));
#235=DIRECTION('ref_axis',(0.,-1.,0.));
#236=DIRECTION('center_axis',(-1.,0.,0.));
#237=DIRECTION('ref_axis',(0.,0.,1.));
#238=DIRECTION('center_axis',(1.,0.,0.));
#239=DIRECTION('ref_axis',(0.,-1.,0.));
#240=DIRECTION('center_axis',(1.,0.,0.));
#241=DIRECTION('ref_axis',(0.,-1.,0.));
#242=DIRECTION('center_axis',(1.,0.,0.));
#243=DIRECTION('ref_axis',(0.,-1.,0.));
#244=DIRECTION('center_axis',(1.,0.,0.));
#245=DIRECTION('ref_axis',(0.,0.,-1.));
#246=DIRECTION('center_axis',(-1.,0.,0.));
#247=DIRECTION('ref_axis',(0.,-1.,0.));
#248=DIRECTION('center_axis',(1.,0.,0.));
#249=DIRECTION('ref_axis',(0.,-1.,0.));
#250=DIRECTION('center_axis',(-1.,0.,0.));
#251=DIRECTION('ref_axis',(0.,-1.,0.));
#252=DIRECTION('center_axis',(1.,0.,0.));
#253=DIRECTION('ref_axis',(0.,1.,0.));
#254=DIRECTION('center_axis',(1.,0.,0.));
#255=DIRECTION('ref_axis',(0.,0.,-1.));
#256=DIRECTION('center_axis',(-1.,0.,0.));
#257=DIRECTION('ref_axis',(0.,-1.,0.));
#258=DIRECTION('center_axis',(1.,0.,0.));
#259=DIRECTION('ref_axis',(0.,-1.,0.));
#260=DIRECTION('center_axis',(1.,0.,0.));
#261=DIRECTION('ref_axis',(0.,1.,0.));
#262=DIRECTION('center_axis',(1.,0.,0.));
#263=DIRECTION('ref_axis',(0.,0.,-1.));
#264=DIRECTION('center_axis',(1.,0.,0.));
#265=DIRECTION('ref_axis',(0.,0.,-1.));
#266=DIRECTION('center_axis',(1.,0.,0.));
#267=DIRECTION('ref_axis',(0.,0.,-1.));
#268=DIRECTION('center_axis',(1.,0.,0.));
#269=DIRECTION('ref_axis',(0.,1.,0.));
#270=DIRECTION('center_axis',(1.,0.,0.));
#271=DIRECTION('ref_axis',(0.,0.,-1.));
#272=DIRECTION('center_axis',(-1.,0.,0.));
#273=DIRECTION('ref_axis',(0.,0.,1.));
#274=DIRECTION('center_axis',(1.,0.,0.));
#275=DIRECTION('ref_axis',(0.,0.,-1.));
#276=DIRECTION('center_axis',(1.,0.,0.));
#277=DIRECTION('ref_axis',(0.,1.,0.));
#278=DIRECTION('center_axis',(1.,0.,0.));
#279=DIRECTION('ref_axis',(0.,0.,-1.));
#280=DIRECTION('center_axis',(1.,0.,0.));
#281=DIRECTION('ref_axis',(0.,0.,-1.));
#282=DIRECTION('center_axis',(1.,0.,0.));
#283=DIRECTION('ref_axis',(0.,0.,-1.));
#284=DIRECTION('center_axis',(1.,0.,0.));
#285=DIRECTION('ref_axis',(0.,1.,0.));
#286=DIRECTION('center_axis',(1.,0.,0.));
#287=DIRECTION('ref_axis',(0.,0.,-1.));
#288=DIRECTION('center_axis',(-1.,0.,0.));
#289=DIRECTION('ref_axis',(0.,0.,1.));
#290=CARTESIAN_POINT('',(0.,0.,0.));
#291=CARTESIAN_POINT('Origin',(0.249999999999999,0.,0.));
#292=CARTESIAN_POINT('',(0.499999999999998,12.5,1.53080849893419E-015));
#293=CARTESIAN_POINT('Origin',(0.499999999999998,0.,0.));
#294=CARTESIAN_POINT('',(0.,13.,-1.59204083889156E-015));
#295=CARTESIAN_POINT('Origin',(0.,0.,0.));
#296=CARTESIAN_POINT('Origin',(29.,0.,0.));
#297=CARTESIAN_POINT('',(57.5,12.5,-1.53080849893419E-015));
#298=CARTESIAN_POINT('Origin',(57.5,0.,0.));
#299=CARTESIAN_POINT('Origin',(0.,20.,0.));
#300=CARTESIAN_POINT('',(0.,19.5,2.38806125833734E-015));
#301=CARTESIAN_POINT('Origin',(0.,0.,0.));
#302=CARTESIAN_POINT('Origin',(57.75,0.,0.));
#303=CARTESIAN_POINT('',(58.,13.,1.59204083889156E-015));
#304=CARTESIAN_POINT('Origin',(58.,0.,0.));
#305=CARTESIAN_POINT('Origin',(58.,12.5,0.));
#306=CARTESIAN_POINT('',(58.,19.5,-2.38806125833734E-015));
#307=CARTESIAN_POINT('Origin',(58.,0.,0.));
#308=CARTESIAN_POINT('Origin',(0.25,0.,0.));
#309=CARTESIAN_POINT('',(0.5,20.,-2.44929359829471E-015));
#310=CARTESIAN_POINT('Origin',(0.5,0.,0.));
#311=CARTESIAN_POINT('Origin',(3.475,0.,0.));
#312=CARTESIAN_POINT('',(6.95,20.,0.));
#313=CARTESIAN_POINT('Origin',(6.95,0.,0.));
#314=CARTESIAN_POINT('Origin',(57.75,0.,0.));
#315=CARTESIAN_POINT('',(57.5,20.,2.44929359829471E-015));
#316=CARTESIAN_POINT('Origin',(57.5,0.,0.));
#317=CARTESIAN_POINT('Origin',(54.525,0.,0.));
#318=CARTESIAN_POINT('',(51.05,20.,0.));
#319=CARTESIAN_POINT('Origin',(51.05,0.,0.));
#320=CARTESIAN_POINT('Origin',(6.95,18.75,0.));
#321=CARTESIAN_POINT('',(6.95,18.75,0.));
#322=CARTESIAN_POINT('Origin',(6.95,0.,0.));
#323=CARTESIAN_POINT('Origin',(7.875,0.,0.));
#324=CARTESIAN_POINT('',(8.8,18.75,0.));
#325=CARTESIAN_POINT('Origin',(8.8,0.,0.));
#326=CARTESIAN_POINT('Origin',(8.8,20.,0.));
#327=CARTESIAN_POINT('',(8.8,20.,0.));
#328=CARTESIAN_POINT('Origin',(8.8,0.,0.));
#329=CARTESIAN_POINT('Origin',(29.,0.,0.));
#330=CARTESIAN_POINT('',(49.2,20.,0.));
#331=CARTESIAN_POINT('Origin',(49.2,0.,0.));
#332=CARTESIAN_POINT('Origin',(49.2,18.75,0.));
#333=CARTESIAN_POINT('',(49.2,18.75,0.));
#334=CARTESIAN_POINT('Origin',(49.2,0.,0.));
#335=CARTESIAN_POINT('Origin',(50.125,0.,0.));
#336=CARTESIAN_POINT('',(51.05,18.75,0.));
#337=CARTESIAN_POINT('Origin',(51.05,0.,0.));
#338=CARTESIAN_POINT('Origin',(51.05,20.,0.));
#339=UNCERTAINTY_MEASURE_WITH_UNIT(LENGTH_MEASURE(0.01),#341,
'DISTANCE_ACCURACY_VALUE',
'Maximum model space distance between geometric entities at asserted c
onnectivities');
#340=(
GEOMETRIC_REPRESENTATION_CONTEXT(3)
GLOBAL_UNCERTAINTY_ASSIGNED_CONTEXT((#339))
GLOBAL_UNIT_ASSIGNED_CONTEXT((#341,#344,#342))
REPRESENTATION_CONTEXT('','3D')
);
#341=(
LENGTH_UNIT()
NAMED_UNIT(*)
SI_UNIT(.MILLI.,.METRE.)
);
#342=(
NAMED_UNIT(*)
SI_UNIT($,.STERADIAN.)
SOLID_ANGLE_UNIT()
);
#343=DIMENSIONAL_EXPONENTS(0.,0.,0.,0.,0.,0.,0.);
#344=(
CONVERSION_BASED_UNIT('degree',#346)
NAMED_UNIT(#343)
PLANE_ANGLE_UNIT()
);
#345=(
NAMED_UNIT(*)
PLANE_ANGLE_UNIT()
SI_UNIT($,.RADIAN.)
);
#346=PLANE_ANGLE_MEASURE_WITH_UNIT(PLANE_ANGLE_MEASURE(0.01745329252),#345);
#347=SHAPE_DEFINITION_REPRESENTATION(#348,#349);
#348=PRODUCT_DEFINITION_SHAPE('',$,#351);
#349=SHAPE_REPRESENTATION('',(#191),#340);
#350=PRODUCT_DEFINITION_CONTEXT('3D Mechanical Parts',#354,'design');
#351=PRODUCT_DEFINITION('LME25UU','LME25UU',#352,#350);
#352=PRODUCT_DEFINITION_FORMATION('',$,#356);
#353=APPLICATION_PROTOCOL_DEFINITION('international standard',
'automotive_design',2009,#354);
#354=APPLICATION_CONTEXT(
'Core Data for Automotive Mechanical Design Process');
#355=PRODUCT_CONTEXT('3D Mechanical Parts',#354,'mechanical');
#356=PRODUCT('LME25UU','LME25UU',$,(#355));
#357=PRESENTATION_STYLE_ASSIGNMENT((#358));
#358=SURFACE_STYLE_USAGE(.BOTH.,#359);
#359=SURFACE_SIDE_STYLE($,(#360));
#360=SURFACE_STYLE_FILL_AREA(#361);
#361=FILL_AREA_STYLE($,(#362));
#362=FILL_AREA_STYLE_COLOUR($,#363);
#363=COLOUR_RGB('',0.87843137254902,0.874509803921569,0.858823529411765);
ENDSEC;
END-ISO-10303-21;
